 
stan@stan-p1:~/Desktop/repositories/ARCH-COMP-repeatability/2020/AFF/Hylaa-Continuous$ ./run_all_benchmarks 
Running with samples_per_side = 5
Making 5x5x5 (125 dims) 3d Heat Plate ODEs...
Finished Making ODEs
Iter 11, eig = -0.00507163209843, rel_error = 0.00284260858669
Iter 12, eig = -0.0050648366745, rel_error = 0.00134168668423
Iter 13, eig = -0.00506101657634, rel_error = 0.000754808466016
Iter 14, eig = -0.00505879350249, rel_error = 0.000439447440096
Iter 15, eig = -0.00505748742939, rel_error = 0.000258245445803
Iter 16, eig = -0.00505689099583, rel_error = 0.000117944714847
Iter 17, eig = -0.00505677773983, rel_error = 2.23968714635e-05
Computed nu(A): 0.00505677773983
Using Krylov method to make basis matrices
Basis matrix shape: (1, 1)
Simulating from 1 initial vector(s)
4 iterations had a posteriori error 0.72862610251
5 iterations had a posteriori error 0.660173710456
6 iterations had a posteriori error 0.74520242599
7 iterations had a posteriori error 0.75428472784
8 iterations had a posteriori error 0.669485737548
9 iterations had a posteriori error 0.574404522993
10 iterations had a posteriori error 0.46329180084
11 iterations had a posteriori error 0.314055636625
13 iterations had a posteriori error 0.0972099318089
15 iterations had a posteriori error 0.024496031541
17 iterations had a posteriori error 0.00522163072598
19 iterations had a posteriori error 0.00204902755205
21 iterations had a posteriori error 0.000915889183795
24 iterations had a posteriori error 0.000130302761322
27 iterations had a posteriori error 2.07384982174e-05
30 iterations had a posteriori error 4.4826851558e-07
Krylov error 4.4826851558e-07 was below threshold (1e-06) with 30 iterations
Krylov Simulation Total Time: 0.17 secs

Solving first step guard LP...
Result: System is safe. Error modes are NOT reachable.

LP minimize calls: 4002
LP iterations: 4002
Total Time (1 calls): 0.45 sec
  Init time_elapse_obj Time (1 calls): 0.01 sec (1.8%)
    Is_symmetric Time (1 calls): 0.00 sec (7.0%)
    Compute_nu_a Time (1 calls): 0.01 sec (91.4%)
      Realloc Time (8 calls): 0.00 sec (4.2%)
      Lanczos Time (8 calls): 0.00 sec (40.3%)
        Lanczos mult Time (17 calls): 0.00 sec (38.9%)
        Lanczos dot Time (17 calls): 0.00 sec (1.3%)
        Lanczos axpy Time (33 calls): 0.00 sec (6.0%)
        Lanczos norm Time (17 calls): 0.00 sec (4.1%)
        Lanczos norm div Time (17 calls): 0.00 sec (2.0%)
        Other: 0.00 sec (47.7%)
      Other: 0.00 sec (55.4%)
    Other: 0.00 sec (1.7%)
  Step Time (2001 calls): 0.18 sec (41.1%)
    Realloc Time (16 calls): 0.00 sec (0.5%)
    Lanczos Time (16 calls): 0.03 sec (16.8%)
      Lanczos mult Time (30 calls): 0.01 sec (26.2%)
      Lanczos dot Time (30 calls): 0.00 sec (0.9%)
      Lanczos axpy Time (59 calls): 0.00 sec (5.0%)
      Lanczos norm Time (30 calls): 0.00 sec (3.4%)
      Lanczos norm div Time (30 calls): 0.00 sec (1.9%)
      Other: 0.02 sec (62.6%)
    A_posteriori_error Time (16 calls): 0.07 sec (40.6%)
      H(t) expm Time (16 calls): 0.03 sec (40.3%)
      H(t) mult Time (16 calls): 0.00 sec (4.7%)
      Other: 0.04 sec (55.0%)
    Projected_sim Time (1 calls): 0.06 sec (31.2%)
      H-mat expm Time (1 calls): 0.05 sec (81.7%)
      Other: 0.01 sec (18.3%)
    Update result list Time (1 calls): 0.00 sec (2.7%)
    Other: 0.02 sec (8.2%)
  Lp minimize Time (4002 calls): 0.13 sec (29.9%)
  Other: 0.12 sec (27.2%)
Running with samples_per_side = 10
Making 10x10x10 (1000 dims) 3d Heat Plate ODEs...
Finished Making ODEs
Iter 11, eig = -0.0049237637199, rel_error = 0.0376439322889
Iter 12, eig = -0.0048273540833, rel_error = 0.0199715278685
Iter 13, eig = -0.00478289009595, rel_error = 0.0092964685482
Iter 14, eig = -0.00475651305216, rel_error = 0.00554545809051
Iter 15, eig = -0.00473755254369, rel_error = 0.0040021737595
Iter 16, eig = -0.00472281573447, rel_error = 0.00312034388828
Iter 17, eig = -0.00470987890521, rel_error = 0.00274674349831
Iter 18, eig = -0.00469876604012, rel_error = 0.00236506031626
Iter 19, eig = -0.00468942018464, rel_error = 0.00199296610327
Iter 20, eig = -0.00468210171646, rel_error = 0.00156307330031
Iter 21, eig = -0.00467641012626, rel_error = 0.00121708533775
Iter 22, eig = -0.004672318845, rel_error = 0.000875642566101
Iter 23, eig = -0.00466976970117, rel_error = 0.000545882130821
Iter 24, eig = -0.00466823793476, rel_error = 0.000328125178773
Iter 25, eig = -0.0046671663497, rel_error = 0.000229600784287
Iter 26, eig = -0.00466644557559, rel_error = 0.000154458914547
Iter 27, eig = -0.0046660271384, rel_error = 8.96774012344e-05
Computed nu(A): 0.0046660271384
Using Krylov method to make basis matrices
Basis matrix shape: (1, 1)
Simulating from 1 initial vector(s)
4 iterations had a posteriori error 0.858282791596
5 iterations had a posteriori error 0.71110788563
6 iterations had a posteriori error 0.672883299706
7 iterations had a posteriori error 0.622887431781
8 iterations had a posteriori error 0.572758636206
9 iterations had a posteriori error 0.577725156561
10 iterations had a posteriori error 0.543660007647
11 iterations had a posteriori error 0.517403879823
13 iterations had a posteriori error 0.544637391666
15 iterations had a posteriori error 0.595672890626
17 iterations had a posteriori error 0.540334176802
19 iterations had a posteriori error 0.431557327761
21 iterations had a posteriori error 0.423489827519
24 iterations had a posteriori error 0.248212674997
27 iterations had a posteriori error 0.13441341493
30 iterations had a posteriori error 0.0552775499729
33 iterations had a posteriori error 0.0209261643008
37 iterations had a posteriori error 0.00516743343483
41 iterations had a posteriori error 0.00184265048149
46 iterations had a posteriori error 0.000744509521426
51 iterations had a posteriori error 0.000181864215904
57 iterations had a posteriori error 2.78079731398e-05
63 iterations had a posteriori error 2.06726013171e-06
70 iterations had a posteriori error 8.64322106647e-08
Krylov error 8.64322106647e-08 was below threshold (1e-06) with 70 iterations
Krylov Simulation Total Time: 0.36 secs

Solving first step guard LP...
Result: System is safe. Error modes are NOT reachable.

LP minimize calls: 4002
LP iterations: 3978
Total Time (1 calls): 0.77 sec
  Init time_elapse_obj Time (1 calls): 0.02 sec (2.5%)
    Is_symmetric Time (1 calls): 0.00 sec (4.3%)
    Compute_nu_a Time (1 calls): 0.02 sec (95.0%)
      Realloc Time (18 calls): 0.00 sec (2.7%)
      Lanczos Time (18 calls): 0.01 sec (31.5%)
        Lanczos mult Time (27 calls): 0.00 sec (34.1%)
        Lanczos dot Time (27 calls): 0.00 sec (1.1%)
        Lanczos axpy Time (53 calls): 0.00 sec (5.7%)
        Lanczos norm Time (27 calls): 0.00 sec (3.8%)
        Lanczos norm div Time (27 calls): 0.00 sec (2.0%)
        Other: 0.00 sec (53.2%)
      Other: 0.01 sec (65.8%)
    Other: 0.00 sec (0.7%)
  Step Time (2001 calls): 0.37 sec (47.8%)
    Realloc Time (24 calls): 0.01 sec (2.5%)
    Lanczos Time (24 calls): 0.06 sec (17.4%)
      Lanczos mult Time (70 calls): 0.02 sec (35.7%)
      Lanczos dot Time (70 calls): 0.00 sec (1.3%)
      Lanczos axpy Time (139 calls): 0.00 sec (7.3%)
      Lanczos norm Time (70 calls): 0.00 sec (4.4%)
      Lanczos norm div Time (70 calls): 0.00 sec (2.6%)
      Other: 0.03 sec (48.6%)
    A_posteriori_error Time (24 calls): 0.17 sec (46.2%)
      H(t) expm Time (24 calls): 0.10 sec (60.7%)
      H(t) mult Time (24 calls): 0.01 sec (3.5%)
      Other: 0.06 sec (35.7%)
    Projected_sim Time (1 calls): 0.11 sec (28.7%)
      H-mat expm Time (1 calls): 0.10 sec (94.8%)
      Other: 0.01 sec (5.2%)
    Update result list Time (1 calls): 0.00 sec (0.5%)
    Other: 0.02 sec (4.7%)
  Lp minimize Time (4002 calls): 0.20 sec (25.9%)
  Other: 0.18 sec (23.8%)
Running with samples_per_side = 20
Making 20x20x20 (8000 dims) 3d Heat Plate ODEs...
Finished Making ODEs
Iter 11, eig = -0.00541157400044, rel_error = 0.0520820527918
Iter 12, eig = -0.00523247549402, rel_error = 0.0342282551776
Iter 13, eig = -0.00511146030479, rel_error = 0.0236752673417
Iter 14, eig = -0.00502355616092, rel_error = 0.0174983897968
Iter 15, eig = -0.00495563096235, rel_error = 0.0137066700669
Iter 16, eig = -0.00490100476437, rel_error = 0.0111459181553
Iter 17, eig = -0.00485474147858, rel_error = 0.00952950553361
Iter 18, eig = -0.00481494079268, rel_error = 0.0082660800247
Iter 19, eig = -0.00477994903744, rel_error = 0.00732052893462
Iter 20, eig = -0.00474895275904, rel_error = 0.00652697130862
Iter 21, eig = -0.00471850009846, rel_error = 0.00645388575663
Iter 22, eig = -0.00468832157169, rel_error = 0.00643695751431
Iter 23, eig = -0.00466060574383, rel_error = 0.0059468295287
Iter 24, eig = -0.00463532817706, rel_error = 0.00545324210158
Iter 25, eig = -0.00461297617438, rel_error = 0.00484546241665
Iter 26, eig = -0.00459359085444, rel_error = 0.00422007979201
Iter 27, eig = -0.00457647592768, rel_error = 0.0037397611232
Iter 28, eig = -0.00456114612306, rel_error = 0.00336095450755
Iter 29, eig = -0.0045471625309, rel_error = 0.00307523473627
Iter 30, eig = -0.00453417984565, rel_error = 0.00286329296302
Iter 31, eig = -0.0045226894324, rel_error = 0.00254061514147
Iter 32, eig = -0.00451289935799, rel_error = 0.00216935358733
Iter 33, eig = -0.00450415258368, rel_error = 0.00194193561251
Iter 34, eig = -0.00449659659511, rel_error = 0.00168037946252
Iter 35, eig = -0.0044901387989, rel_error = 0.00143821750211
Iter 36, eig = -0.00448470740997, rel_error = 0.00121109103294
Iter 37, eig = -0.00448004248173, rel_error = 0.00104126875181
Iter 38, eig = -0.00447624949464, rel_error = 0.000847358284161
Iter 39, eig = -0.00447355098495, rel_error = 0.000603214247827
Iter 40, eig = -0.00447183566576, rel_error = 0.000383582787336
Iter 41, eig = -0.00447076192478, rel_error = 0.000240169571135
Iter 42, eig = -0.00447002276126, rel_error = 0.000165360125334
Iter 43, eig = -0.00446946468798, rel_error = 0.000124863561797
Iter 44, eig = -0.00446903624212, rel_error = 9.58698561545e-05
Computed nu(A): 0.00446903624212
Using Krylov method to make basis matrices
Basis matrix shape: (1, 1)
Simulating from 1 initial vector(s)
4 iterations had a posteriori error 1.10299427245
5 iterations had a posteriori error 1.03311203827
6 iterations had a posteriori error 1.13127023671
7 iterations had a posteriori error 1.02979161899
8 iterations had a posteriori error 0.917999709605
9 iterations had a posteriori error 0.924368755072
10 iterations had a posteriori error 0.87548127283
11 iterations had a posteriori error 0.813279672862
13 iterations had a posteriori error 0.746482460923
15 iterations had a posteriori error 0.701629389737
17 iterations had a posteriori error 0.651152544156
19 iterations had a posteriori error 0.619377476015
21 iterations had a posteriori error 0.597059205193
24 iterations had a posteriori error 0.555848384523
27 iterations had a posteriori error 0.553157458302
30 iterations had a posteriori error 0.602965401985
33 iterations had a posteriori error 0.630720377242
37 iterations had a posteriori error 0.458907000499
41 iterations had a posteriori error 0.40599403739
46 iterations had a posteriori error 0.358096307379
51 iterations had a posteriori error 0.21571920242
57 iterations had a posteriori error 0.114531175354
63 iterations had a posteriori error 0.0478337781316
70 iterations had a posteriori error 0.0160997821359
77 iterations had a posteriori error 0.00537348701618
85 iterations had a posteriori error 0.00174881023395
94 iterations had a posteriori error 0.000745697219167
104 iterations had a posteriori error 0.000209596163696
115 iterations had a posteriori error 2.73484585108e-05
127 iterations had a posteriori error 3.44594689014e-06
140 iterations had a posteriori error 1.24271830742e-07
Krylov error 1.24271830742e-07 was below threshold (1e-06) with 140 iterations
Krylov Simulation Total Time: 0.86 secs

Solving first step guard LP...
Result: System is safe. Error modes are NOT reachable.

LP minimize calls: 4002
LP iterations: 3960
Total Time (1 calls): 1.42 sec
  Init time_elapse_obj Time (1 calls): 0.10 sec (6.9%)
    Is_symmetric Time (1 calls): 0.00 sec (4.4%)
    Compute_nu_a Time (1 calls): 0.09 sec (95.3%)
      Realloc Time (35 calls): 0.00 sec (0.5%)
      Lanczos Time (35 calls): 0.02 sec (25.7%)
        Lanczos mult Time (44 calls): 0.01 sec (30.4%)
        Lanczos dot Time (44 calls): 0.00 sec (1.6%)
        Lanczos axpy Time (87 calls): 0.00 sec (11.4%)
        Lanczos norm Time (44 calls): 0.00 sec (3.3%)
        Lanczos norm div Time (44 calls): 0.00 sec (2.8%)
        Other: 0.01 sec (50.5%)
      Other: 0.07 sec (73.8%)
    Other: 0.00 sec (0.2%)
  Step Time (2001 calls): 0.88 sec (62.0%)
    Realloc Time (31 calls): 0.00 sec (0.3%)
    Lanczos Time (31 calls): 0.22 sec (24.7%)
      Lanczos mult Time (140 calls): 0.10 sec (43.8%)
      Lanczos dot Time (140 calls): 0.00 sec (2.0%)
      Lanczos axpy Time (279 calls): 0.03 sec (11.8%)
      Lanczos norm Time (140 calls): 0.01 sec (4.7%)
      Lanczos norm div Time (140 calls): 0.01 sec (4.0%)
      Other: 0.07 sec (33.7%)
    A_posteriori_error Time (31 calls): 0.42 sec (48.1%)
      H(t) expm Time (31 calls): 0.34 sec (79.2%)
      H(t) mult Time (31 calls): 0.02 sec (4.9%)
      Other: 0.07 sec (15.9%)
    Projected_sim Time (1 calls): 0.21 sec (23.5%)
      H-mat expm Time (1 calls): 0.14 sec (68.1%)
      Other: 0.07 sec (31.9%)
    Update result list Time (1 calls): 0.00 sec (0.5%)
    Other: 0.02 sec (2.8%)
  Lp minimize Time (4002 calls): 0.23 sec (16.5%)
  Other: 0.21 sec (14.7%)
Running with samples_per_side = 50
Making 50x50x50 (125000 dims) 3d Heat Plate ODEs...
Finished Making ODEs
Iter 11, eig = -0.00767442023914, rel_error = 0.19571504647
Iter 12, eig = -0.00677284738758, rel_error = 0.133115778338
Iter 13, eig = -0.0062153811742, rel_error = 0.0896913958704
Iter 14, eig = -0.00585341150816, rel_error = 0.0618390942672
Iter 15, eig = -0.00561057441746, rel_error = 0.0432820372088
Iter 16, eig = -0.00543961972313, rel_error = 0.0314276921984
Iter 17, eig = -0.00531485085816, rel_error = 0.0234755157378
Iter 18, eig = -0.00522035288998, rel_error = 0.0181018352919
Iter 19, eig = -0.00514456173823, rel_error = 0.0147322853934
Iter 20, eig = -0.00508381706358, rel_error = 0.0119486350297
Iter 21, eig = -0.00503415240153, rel_error = 0.00986554599324
Iter 22, eig = -0.00499169480752, rel_error = 0.00850564700935
Iter 23, eig = -0.00495477282927, rel_error = 0.00745180041807
Iter 24, eig = -0.00492214541964, rel_error = 0.00662869680854
Iter 25, eig = -0.0048938749191, rel_error = 0.00577671088971
Iter 26, eig = -0.00486878706945, rel_error = 0.00515279253269
Iter 27, eig = -0.00484585680678, rel_error = 0.00473193154046
Iter 28, eig = -0.00482464145404, rel_error = 0.00439729106204
Iter 29, eig = -0.00480503735824, rel_error = 0.0040799049695
Iter 30, eig = -0.00478713772148, rel_error = 0.00373911046709
Iter 31, eig = -0.00477053693539, rel_error = 0.00347985694549
Iter 32, eig = -0.00475446929098, rel_error = 0.00337948221502
Iter 33, eig = -0.00473852740238, rel_error = 0.00336431284456
Iter 34, eig = -0.00472254582343, rel_error = 0.00338410246278
Iter 35, eig = -0.00470665777587, rel_error = 0.00337565387521
Iter 36, eig = -0.00469101881783, rel_error = 0.00333380842
Iter 37, eig = -0.00467554085398, rel_error = 0.00331041142347
Iter 38, eig = -0.00466042578609, rel_error = 0.00324328046075
Iter 39, eig = -0.00464555865139, rel_error = 0.00320028995804
Iter 40, eig = -0.00463101059907, rel_error = 0.00314144224069
Iter 41, eig = -0.00461670190827, rel_error = 0.00309933175042
Iter 42, eig = -0.0046026017379, rel_error = 0.00306352171368
Iter 43, eig = -0.00458897472197, rel_error = 0.00296951209266
Iter 44, eig = -0.00457582275633, rel_error = 0.00287422969514
Iter 45, eig = -0.00456308199671, rel_error = 0.0027921390917
Iter 46, eig = -0.00455101733061, rel_error = 0.0026509822358
Iter 47, eig = -0.00453974861292, rel_error = 0.00248223385256
Iter 48, eig = -0.0045292285673, rel_error = 0.00232270141918
Iter 49, eig = -0.00451938471931, rel_error = 0.00217813897181
Iter 50, eig = -0.00451024501747, rel_error = 0.00202643133825
Iter 51, eig = -0.00450176806942, rel_error = 0.00188302638313
Iter 52, eig = -0.0044938633917, rel_error = 0.00175899377144
Iter 53, eig = -0.00448658035113, rel_error = 0.00162329435963
Iter 54, eig = -0.00447995307328, rel_error = 0.00147931858603
Iter 55, eig = -0.00447376722432, rel_error = 0.00138269352278
Iter 56, eig = -0.00446792108483, rel_error = 0.00130846972742
Iter 57, eig = -0.00446227187227, rel_error = 0.00126599470535
Iter 58, eig = -0.00445676434377, rel_error = 0.00123576839081
Iter 59, eig = -0.00445143542319, rel_error = 0.00119712408938
Iter 60, eig = -0.00444624149605, rel_error = 0.0011681612772
Iter 61, eig = -0.00444111003052, rel_error = 0.00115544660956
Iter 62, eig = -0.00443601600474, rel_error = 0.00114833349867
Iter 63, eig = -0.0044309000659, rel_error = 0.00115460487899
Iter 64, eig = -0.00442578387519, rel_error = 0.00115599651128
Iter 65, eig = -0.00442066315586, rel_error = 0.00115835999009
Iter 66, eig = -0.00441555902262, rel_error = 0.00115594270298
Iter 67, eig = -0.0044105123607, rel_error = 0.00114423484442
Iter 68, eig = -0.00440555808557, rel_error = 0.00112455108623
Iter 69, eig = -0.00440072213774, rel_error = 0.00109889869749
Iter 70, eig = -0.00439602047128, rel_error = 0.00106952788284
Iter 71, eig = -0.00439153377476, rel_error = 0.00102166959037
Iter 72, eig = -0.00438729958793, rel_error = 0.000965100912934
Iter 73, eig = -0.00438333623567, rel_error = 0.000904186227228
Iter 74, eig = -0.00437963091006, rel_error = 0.000846036044349
Iter 75, eig = -0.00437618452176, rel_error = 0.000787532674096
Iter 76, eig = -0.00437302058334, rel_error = 0.000723513269573
Iter 77, eig = -0.00437015758335, rel_error = 0.000655125115836
Iter 78, eig = -0.00436758664136, rel_error = 0.00058864132591
Iter 79, eig = -0.00436527996981, rel_error = 0.000528413196872
Iter 80, eig = -0.00436320540092, rel_error = 0.000475468997328
Iter 81, eig = -0.00436135792146, rel_error = 0.000423601890259
Iter 82, eig = -0.00435972563691, rel_error = 0.000374400749158
Iter 83, eig = -0.00435827812792, rel_error = 0.000332128640625
Iter 84, eig = -0.00435698635005, rel_error = 0.000296484259723
Iter 85, eig = -0.00435582840905, rel_error = 0.000265837148327
Iter 86, eig = -0.00435479995798, rel_error = 0.000236164938379
Iter 87, eig = -0.00435387799882, rel_error = 0.00021175585551
Iter 88, eig = -0.00435303408822, rel_error = 0.000193867215918
Iter 89, eig = -0.00435225449454, rel_error = 0.000179124102885
Iter 90, eig = -0.00435154122073, rel_error = 0.000163912916071
Iter 91, eig = -0.00435090071085, rel_error = 0.00014721316886
Iter 92, eig = -0.0043503429959, rel_error = 0.000128200224908
Iter 93, eig = -0.0043498717975, rel_error = 0.000108324664019
Iter 94, eig = -0.00434948390121, rel_error = 8.91821422954e-05
Computed nu(A): 0.00434948390121
Using Krylov method to make basis matrices
Basis matrix shape: (1, 1)
Simulating from 1 initial vector(s)
4 iterations had a posteriori error 1.26867766713
5 iterations had a posteriori error 1.43548364345
6 iterations had a posteriori error 1.41362384536
7 iterations had a posteriori error 1.37528020948
8 iterations had a posteriori error 1.45179274646
9 iterations had a posteriori error 1.33571144506
10 iterations had a posteriori error 1.50463272491
11 iterations had a posteriori error 1.6753957902
13 iterations had a posteriori error 1.62907816802
15 iterations had a posteriori error 1.54104245622
17 iterations had a posteriori error 1.3503080207
19 iterations had a posteriori error 1.34826801901
21 iterations had a posteriori error 1.41181131539
24 iterations had a posteriori error 1.21263015372
27 iterations had a posteriori error 1.09280265208
30 iterations had a posteriori error 1.06491738557
33 iterations had a posteriori error 1.00386811595
37 iterations had a posteriori error 0.947839926187
41 iterations had a posteriori error 0.892902080997
46 iterations had a posteriori error 0.836448777563
51 iterations had a posteriori error 0.802235390009
57 iterations had a posteriori error 0.754677933511
63 iterations had a posteriori error 0.707883981557
70 iterations had a posteriori error 0.704167405034
77 iterations had a posteriori error 0.785640277343
85 iterations had a posteriori error 0.821520865932
94 iterations had a posteriori error 0.663514181644
104 iterations had a posteriori error 0.514191415261
115 iterations had a posteriori error 0.466643337923
127 iterations had a posteriori error 0.29808086039
140 iterations had a posteriori error 0.175915316563
154 iterations had a posteriori error 0.082336106937
170 iterations had a posteriori error 0.0335293119999
188 iterations had a posteriori error 0.0114902749085
207 iterations had a posteriori error 0.00303712825066
228 iterations had a posteriori error 0.00121364239635
251 iterations had a posteriori error 0.000501621818301
277 iterations had a posteriori error 5.92123995519e-05
305 iterations had a posteriori error 1.58067388397e-05
336 iterations had a posteriori error 6.9366594734e-07
Krylov error 6.9366594734e-07 was below threshold (1e-06) with 336 iterations
Krylov Simulation Total Time: 3.67 secs

Solving first step guard LP...
Result: System is safe. Error modes are NOT reachable.

LP minimize calls: 4002
LP iterations: 3948
Total Time (1 calls): 7.40 sec
  Init time_elapse_obj Time (1 calls): 3.40 sec (46.0%)
    Is_symmetric Time (1 calls): 0.10 sec (3.0%)
    Compute_nu_a Time (1 calls): 3.30 sec (96.9%)
      Realloc Time (85 calls): 0.00 sec (0.1%)
      Lanczos Time (85 calls): 1.27 sec (38.5%)
        Lanczos mult Time (94 calls): 0.71 sec (56.0%)
        Lanczos dot Time (94 calls): 0.06 sec (4.9%)
        Lanczos axpy Time (187 calls): 0.21 sec (16.2%)
        Lanczos norm Time (94 calls): 0.05 sec (4.0%)
        Lanczos norm div Time (94 calls): 0.05 sec (3.6%)
        Other: 0.20 sec (15.4%)
      Other: 2.03 sec (61.5%)
    Other: 0.00 sec (0.1%)
  Step Time (2001 calls): 3.70 sec (50.0%)
    Realloc Time (40 calls): 0.01 sec (0.2%)
    Lanczos Time (40 calls): 2.59 sec (70.0%)
      Lanczos mult Time (336 calls): 1.73 sec (66.9%)
      Lanczos dot Time (336 calls): 0.17 sec (6.7%)
      Lanczos axpy Time (671 calls): 0.38 sec (14.6%)
      Lanczos norm Time (336 calls): 0.10 sec (3.8%)
      Lanczos norm div Time (336 calls): 0.11 sec (4.3%)
      Other: 0.10 sec (3.7%)
    A_posteriori_error Time (40 calls): 0.67 sec (18.2%)
      H(t) expm Time (40 calls): 0.59 sec (87.6%)
      H(t) mult Time (40 calls): 0.03 sec (3.8%)
      Other: 0.06 sec (8.7%)
    Projected_sim Time (1 calls): 0.39 sec (10.4%)
      H-mat expm Time (1 calls): 0.26 sec (68.4%)
      Other: 0.12 sec (31.6%)
    Update result list Time (1 calls): 0.00 sec (0.1%)
    Other: 0.04 sec (1.0%)
  Lp minimize Time (4002 calls): 0.16 sec (2.1%)
  Other: 0.14 sec (1.9%)
Running with samples_per_side = 100
Making 100x100x100 (1000000 dims) 3d Heat Plate ODEs...
Finished Making ODEs
lanczos iteration 0 / 10, Elapsed: 0.00m, ETA: 0.00m
lanczos iteration 1 / 10, Elapsed: 0.00m, ETA: 0.00m
lanczos iteration 2 / 10, Elapsed: 0.00m, ETA: 0.00m
lanczos iteration 3 / 10, Elapsed: 0.00m, ETA: 0.00m
lanczos iteration 4 / 10, Elapsed: 0.00m, ETA: 0.00m
lanczos iteration 5 / 10, Elapsed: 0.00m, ETA: 0.00m
lanczos iteration 6 / 10, Elapsed: 0.00m, ETA: 0.00m
lanczos iteration 7 / 10, Elapsed: 0.01m, ETA: 0.00m
lanczos iteration 8 / 10, Elapsed: 0.01m, ETA: 0.00m
lanczos iteration 9 / 10, Elapsed: 0.01m, ETA: 0.00m
lanczos iteration 10 / 11, Elapsed: 0.01m, ETA: 0.00m
Iter 11, eig = -0.0145926464619, rel_error = 0.376270000115
lanczos iteration 11 / 12, Elapsed: 0.01m, ETA: 0.00m
Iter 12, eig = -0.0113388135504, rel_error = 0.286964142862
lanczos iteration 12 / 13, Elapsed: 0.01m, ETA: 0.00m
Iter 13, eig = -0.00933802883298, rel_error = 0.214261998242
lanczos iteration 13 / 14, Elapsed: 0.01m, ETA: 0.00m
Iter 14, eig = -0.00803835171262, rel_error = 0.161684530216
lanczos iteration 14 / 15, Elapsed: 0.01m, ETA: 0.00m
Iter 15, eig = -0.00717667512218, rel_error = 0.120066266867
lanczos iteration 15 / 16, Elapsed: 0.01m, ETA: 0.00m
Iter 16, eig = -0.00658284024453, rel_error = 0.0902095228794
lanczos iteration 16 / 17, Elapsed: 0.01m, ETA: 0.00m
Iter 17, eig = -0.00616370969486, rel_error = 0.0679997226378
lanczos iteration 17 / 18, Elapsed: 0.01m, ETA: 0.00m
Iter 18, eig = -0.00586459705, rel_error = 0.0510031025666
lanczos iteration 18 / 19, Elapsed: 0.02m, ETA: 0.00m
Iter 19, eig = -0.00564400021834, rel_error = 0.039085191908
lanczos iteration 19 / 20, Elapsed: 0.02m, ETA: 0.00m
Iter 20, eig = -0.00547957215808, rel_error = 0.030007463268
lanczos iteration 20 / 21, Elapsed: 0.02m, ETA: 0.00m
Iter 21, eig = -0.00535427966904, rel_error = 0.0234004379283
lanczos iteration 21 / 22, Elapsed: 0.02m, ETA: 0.00m
Iter 22, eig = -0.00525724754973, rel_error = 0.0184568290507
lanczos iteration 22 / 23, Elapsed: 0.02m, ETA: 0.00m
Iter 23, eig = -0.00518164496893, rel_error = 0.0145904594497
lanczos iteration 23 / 24, Elapsed: 0.02m, ETA: 0.00m
Iter 24, eig = -0.00512158739246, rel_error = 0.0117263597917
lanczos iteration 24 / 25, Elapsed: 0.02m, ETA: 0.00m
Iter 25, eig = -0.00507342301214, rel_error = 0.00949346825684
lanczos iteration 25 / 26, Elapsed: 0.02m, ETA: 0.00m
Iter 26, eig = -0.00503417941259, rel_error = 0.00779543125954
lanczos iteration 26 / 27, Elapsed: 0.02m, ETA: 0.00m
Iter 27, eig = -0.00500164377795, rel_error = 0.00650498837616
lanczos iteration 27 / 28, Elapsed: 0.02m, ETA: 0.00m
Iter 28, eig = -0.00497438850387, rel_error = 0.00547912051104
lanczos iteration 28 / 29, Elapsed: 0.02m, ETA: 0.00m
Iter 29, eig = -0.00495104642851, rel_error = 0.00471457411987
lanczos iteration 29 / 30, Elapsed: 0.03m, ETA: 0.00m
Iter 30, eig = -0.0049309994628, rel_error = 0.00406549744238
lanczos iteration 30 / 31, Elapsed: 0.03m, ETA: 0.00m
Iter 31, eig = -0.00491360792527, rel_error = 0.00353946383081
lanczos iteration 31 / 32, Elapsed: 0.03m, ETA: 0.00m
Iter 32, eig = -0.00489823274231, rel_error = 0.00313892454186
lanczos iteration 32 / 33, Elapsed: 0.03m, ETA: 0.00m
Iter 33, eig = -0.00488440150512, rel_error = 0.00283171585557
lanczos iteration 33 / 34, Elapsed: 0.03m, ETA: 0.00m
Iter 34, eig = -0.00487170127345, rel_error = 0.00260693974376
lanczos iteration 34 / 35, Elapsed: 0.03m, ETA: 0.00m
Iter 35, eig = -0.0048599440804, rel_error = 0.00241920336116
lanczos iteration 35 / 36, Elapsed: 0.03m, ETA: 0.00m
Iter 36, eig = -0.00484903782358, rel_error = 0.00224915894951
lanczos iteration 36 / 37, Elapsed: 0.03m, ETA: 0.00m
Iter 37, eig = -0.00483874799707, rel_error = 0.0021265473034
lanczos iteration 37 / 38, Elapsed: 0.03m, ETA: 0.00m
Iter 38, eig = -0.00482901207941, rel_error = 0.00201613031805
lanczos iteration 38 / 39, Elapsed: 0.03m, ETA: 0.00m
Iter 39, eig = -0.00481975434138, rel_error = 0.00192079043469
lanczos iteration 39 / 40, Elapsed: 0.03m, ETA: 0.00m
Iter 40, eig = -0.0048108661265, rel_error = 0.00184752903985
lanczos iteration 40 / 41, Elapsed: 0.03m, ETA: 0.00m
Iter 41, eig = -0.00480227006462, rel_error = 0.00178999967992
lanczos iteration 41 / 42, Elapsed: 0.03m, ETA: 0.00m
Iter 42, eig = -0.00479386873197, rel_error = 0.00175251620778
lanczos iteration 42 / 43, Elapsed: 0.03m, ETA: 0.00m
Iter 43, eig = -0.00478563111775, rel_error = 0.00172132243739
lanczos iteration 43 / 44, Elapsed: 0.03m, ETA: 0.00m
Iter 44, eig = -0.00477751841383, rel_error = 0.00169809998057
lanczos iteration 44 / 45, Elapsed: 0.03m, ETA: 0.00m
Iter 45, eig = -0.00476949322584, rel_error = 0.00168260811208
lanczos iteration 45 / 46, Elapsed: 0.03m, ETA: 0.00m
Iter 46, eig = -0.0047614847336, rel_error = 0.00168193172543
lanczos iteration 46 / 47, Elapsed: 0.04m, ETA: 0.00m
Iter 47, eig = -0.00475345175065, rel_error = 0.00168992626197
lanczos iteration 47 / 48, Elapsed: 0.04m, ETA: 0.00m
Iter 48, eig = -0.00474542590651, rel_error = 0.00169128004515
lanczos iteration 48 / 49, Elapsed: 0.04m, ETA: 0.00m
Iter 49, eig = -0.00473744788379, rel_error = 0.00168403387659
lanczos iteration 49 / 50, Elapsed: 0.04m, ETA: 0.00m
Iter 50, eig = -0.00472951780192, rel_error = 0.00167672101077
lanczos iteration 50 / 51, Elapsed: 0.04m, ETA: 0.00m
Iter 51, eig = -0.00472167962913, rel_error = 0.00166003909749
lanczos iteration 51 / 52, Elapsed: 0.04m, ETA: 0.00m
Iter 52, eig = -0.00471394131409, rel_error = 0.00164158068974
lanczos iteration 52 / 53, Elapsed: 0.04m, ETA: 0.00m
Iter 53, eig = -0.00470628635087, rel_error = 0.0016265400474
lanczos iteration 53 / 54, Elapsed: 0.04m, ETA: 0.00m
Iter 54, eig = -0.00469865748406, rel_error = 0.00162362692695
lanczos iteration 54 / 55, Elapsed: 0.04m, ETA: 0.00m
Iter 55, eig = -0.00469107199071, rel_error = 0.00161700638101
lanczos iteration 55 / 56, Elapsed: 0.04m, ETA: 0.00m
Iter 56, eig = -0.0046834986438, rel_error = 0.00161702767261
lanczos iteration 56 / 57, Elapsed: 0.04m, ETA: 0.00m
Iter 57, eig = -0.00467591997191, rel_error = 0.00162078734086
lanczos iteration 57 / 58, Elapsed: 0.04m, ETA: 0.00m
Iter 58, eig = -0.00466830022265, rel_error = 0.00163223205286
lanczos iteration 58 / 59, Elapsed: 0.04m, ETA: 0.00m
Iter 59, eig = -0.00466066892353, rel_error = 0.00163738279847
lanczos iteration 59 / 60, Elapsed: 0.04m, ETA: 0.00m
Iter 60, eig = -0.00465302019946, rel_error = 0.00164381922725
lanczos iteration 60 / 61, Elapsed: 0.04m, ETA: 0.00m
Iter 61, eig = -0.00464534512072, rel_error = 0.00165220850822
lanczos iteration 61 / 62, Elapsed: 0.04m, ETA: 0.00m
Iter 62, eig = -0.00463762082448, rel_error = 0.00166557304713
lanczos iteration 62 / 63, Elapsed: 0.04m, ETA: 0.00m
Iter 63, eig = -0.00462991774839, rel_error = 0.00166376089297
lanczos iteration 63 / 64, Elapsed: 0.05m, ETA: 0.00m
Iter 64, eig = -0.00462225190713, rel_error = 0.00165846462106
lanczos iteration 64 / 65, Elapsed: 0.05m, ETA: 0.00m
Iter 65, eig = -0.00461464078027, rel_error = 0.00164934330257
lanczos iteration 65 / 66, Elapsed: 0.05m, ETA: 0.00m
Iter 66, eig = -0.00460710896964, rel_error = 0.00163482363288
lanczos iteration 66 / 67, Elapsed: 0.05m, ETA: 0.00m
Iter 67, eig = -0.00459965765111, rel_error = 0.00161997241915
lanczos iteration 67 / 68, Elapsed: 0.05m, ETA: 0.00m
Iter 68, eig = -0.0045923035975, rel_error = 0.00160138663709
lanczos iteration 68 / 69, Elapsed: 0.05m, ETA: 0.00m
Iter 69, eig = -0.00458505223254, rel_error = 0.00158152286793
lanczos iteration 69 / 70, Elapsed: 0.05m, ETA: 0.00m
Iter 70, eig = -0.00457790928459, rel_error = 0.00156030788381
lanczos iteration 70 / 71, Elapsed: 0.05m, ETA: 0.00m
Iter 71, eig = -0.00457088233657, rel_error = 0.00153732857427
lanczos iteration 71 / 72, Elapsed: 0.05m, ETA: 0.00m
Iter 72, eig = -0.00456398699493, rel_error = 0.00151081535522
lanczos iteration 72 / 73, Elapsed: 0.05m, ETA: 0.00m
Iter 73, eig = -0.00455723356123, rel_error = 0.00148191520407
lanczos iteration 73 / 74, Elapsed: 0.05m, ETA: 0.00m
Iter 74, eig = -0.00455064694579, rel_error = 0.00144740198825
lanczos iteration 74 / 75, Elapsed: 0.05m, ETA: 0.00m
Iter 75, eig = -0.00454420331371, rel_error = 0.00141798939032
lanczos iteration 75 / 76, Elapsed: 0.05m, ETA: 0.00m
Iter 76, eig = -0.00453791491061, rel_error = 0.00138574724724
lanczos iteration 76 / 77, Elapsed: 0.05m, ETA: 0.00m
Iter 77, eig = -0.00453180862059, rel_error = 0.00134742892596
lanczos iteration 77 / 78, Elapsed: 0.05m, ETA: 0.00m
Iter 78, eig = -0.00452588148557, rel_error = 0.00130960897639
lanczos iteration 78 / 79, Elapsed: 0.05m, ETA: 0.00m
Iter 79, eig = -0.00452011051733, rel_error = 0.00127673166813
lanczos iteration 79 / 80, Elapsed: 0.05m, ETA: 0.00m
Iter 80, eig = -0.00451447504163, rel_error = 0.00124831251633
lanczos iteration 80 / 81, Elapsed: 0.05m, ETA: 0.00m
Iter 81, eig = -0.00450895705014, rel_error = 0.00122378444269
lanczos iteration 81 / 82, Elapsed: 0.06m, ETA: 0.00m
Iter 82, eig = -0.0045035640698, rel_error = 0.00119749164323
lanczos iteration 82 / 83, Elapsed: 0.06m, ETA: 0.00m
Iter 83, eig = -0.00449830586828, rel_error = 0.00116892929871
lanczos iteration 83 / 84, Elapsed: 0.06m, ETA: 0.00m
Iter 84, eig = -0.00449316368412, rel_error = 0.00114444621158
lanczos iteration 84 / 85, Elapsed: 0.06m, ETA: 0.00m
Iter 85, eig = -0.00448813614332, rel_error = 0.001120184558
lanczos iteration 85 / 86, Elapsed: 0.06m, ETA: 0.00m
Iter 86, eig = -0.00448323779414, rel_error = 0.00109259187264
lanczos iteration 86 / 87, Elapsed: 0.06m, ETA: 0.00m
Iter 87, eig = -0.00447847783914, rel_error = 0.00106285107964
lanczos iteration 87 / 88, Elapsed: 0.06m, ETA: 0.00m
Iter 88, eig = -0.00447385066827, rel_error = 0.00103427029897
lanczos iteration 88 / 89, Elapsed: 0.06m, ETA: 0.00m
Iter 89, eig = -0.0044693510968, rel_error = 0.00100676169109
lanczos iteration 89 / 90, Elapsed: 0.06m, ETA: 0.00m
Iter 90, eig = -0.00446495927121, rel_error = 0.000983620526175
lanczos iteration 90 / 91, Elapsed: 0.06m, ETA: 0.00m
Iter 91, eig = -0.00446066706327, rel_error = 0.00096223454502
lanczos iteration 91 / 92, Elapsed: 0.06m, ETA: 0.00m
Iter 92, eig = -0.00445645861365, rel_error = 0.000944348413931
lanczos iteration 92 / 93, Elapsed: 0.06m, ETA: 0.00m
Iter 93, eig = -0.00445232059464, rel_error = 0.000929407241789
lanczos iteration 93 / 94, Elapsed: 0.06m, ETA: 0.00m
Iter 94, eig = -0.00444826694224, rel_error = 0.000911288026146
lanczos iteration 94 / 95, Elapsed: 0.06m, ETA: 0.00m
Iter 95, eig = -0.00444429192618, rel_error = 0.000894409306536
lanczos iteration 95 / 96, Elapsed: 0.06m, ETA: 0.00m
Iter 96, eig = -0.00444038357057, rel_error = 0.000880184234671
lanczos iteration 96 / 97, Elapsed: 0.06m, ETA: 0.00m
Iter 97, eig = -0.00443653040208, rel_error = 0.000868509429701
lanczos iteration 97 / 98, Elapsed: 0.06m, ETA: 0.00m
Iter 98, eig = -0.00443274375378, rel_error = 0.000854244798408
lanczos iteration 98 / 99, Elapsed: 0.06m, ETA: 0.00m
Iter 99, eig = -0.00442901647392, rel_error = 0.000841559268106
lanczos iteration 99 / 100, Elapsed: 0.07m, ETA: 0.00m
Iter 100, eig = -0.00442532754346, rel_error = 0.000833594897721
lanczos iteration 100 / 101, Elapsed: 0.07m, ETA: 0.00m
Iter 101, eig = -0.00442167676717, rel_error = 0.000825654267843
lanczos iteration 101 / 102, Elapsed: 0.07m, ETA: 0.00m
Iter 102, eig = -0.00441806603763, rel_error = 0.000817264727955
lanczos iteration 102 / 103, Elapsed: 0.07m, ETA: 0.00m
Iter 103, eig = -0.00441448802393, rel_error = 0.000810516117973
lanczos iteration 103 / 104, Elapsed: 0.07m, ETA: 0.00m
Iter 104, eig = -0.00441095101879, rel_error = 0.000801869058251
lanczos iteration 104 / 105, Elapsed: 0.07m, ETA: 0.00m
Iter 105, eig = -0.00440749682429, rel_error = 0.000783708902134
lanczos iteration 105 / 106, Elapsed: 0.07m, ETA: 0.00m
Iter 106, eig = -0.00440414445766, rel_error = 0.000761184530627
lanczos iteration 106 / 107, Elapsed: 0.07m, ETA: 0.00m
Iter 107, eig = -0.00440088248459, rel_error = 0.000741208856798
lanczos iteration 107 / 108, Elapsed: 0.07m, ETA: 0.00m
Iter 108, eig = -0.00439769234622, rel_error = 0.00072541190063
lanczos iteration 108 / 109, Elapsed: 0.07m, ETA: 0.00m
Iter 109, eig = -0.0043945844148, rel_error = 0.000707218505224
lanczos iteration 109 / 110, Elapsed: 0.07m, ETA: 0.00m
Iter 110, eig = -0.00439156357319, rel_error = 0.000687873821148
lanczos iteration 110 / 111, Elapsed: 0.07m, ETA: 0.00m
Iter 111, eig = -0.00438861259236, rel_error = 0.00067241770984
lanczos iteration 111 / 112, Elapsed: 0.07m, ETA: 0.00m
Iter 112, eig = -0.00438573996805, rel_error = 0.000654991934347
lanczos iteration 112 / 113, Elapsed: 0.07m, ETA: 0.00m
Iter 113, eig = -0.00438295462596, rel_error = 0.000635494165861
lanczos iteration 113 / 114, Elapsed: 0.07m, ETA: 0.00m
Iter 114, eig = -0.00438027464148, rel_error = 0.000611830238127
lanczos iteration 114 / 115, Elapsed: 0.07m, ETA: 0.00m
Iter 115, eig = -0.00437770432961, rel_error = 0.000587136928643
lanczos iteration 115 / 116, Elapsed: 0.07m, ETA: 0.00m
Iter 116, eig = -0.00437522186282, rel_error = 0.00056739220665
lanczos iteration 116 / 117, Elapsed: 0.07m, ETA: 0.00m
Iter 117, eig = -0.00437280842919, rel_error = 0.000551918444261
lanczos iteration 117 / 118, Elapsed: 0.07m, ETA: 0.00m
Iter 118, eig = -0.00437046457522, rel_error = 0.000536294010542
lanczos iteration 118 / 119, Elapsed: 0.07m, ETA: 0.00m
Iter 119, eig = -0.00436818657405, rel_error = 0.000521498139941
lanczos iteration 119 / 120, Elapsed: 0.08m, ETA: 0.00m
Iter 120, eig = -0.004365961654, rel_error = 0.000509605952976
lanczos iteration 120 / 121, Elapsed: 0.08m, ETA: 0.00m
Iter 121, eig = -0.00436377676074, rel_error = 0.000500688594959
lanczos iteration 121 / 122, Elapsed: 0.08m, ETA: 0.00m
Iter 122, eig = -0.00436164504329, rel_error = 0.000488741616725
lanczos iteration 122 / 123, Elapsed: 0.08m, ETA: 0.00m
Iter 123, eig = -0.00435956206353, rel_error = 0.000477795643235
lanczos iteration 123 / 124, Elapsed: 0.08m, ETA: 0.00m
Iter 124, eig = -0.00435752324713, rel_error = 0.000467884227625
lanczos iteration 124 / 125, Elapsed: 0.08m, ETA: 0.00m
Iter 125, eig = -0.00435553976316, rel_error = 0.000455393380237
lanczos iteration 125 / 126, Elapsed: 0.08m, ETA: 0.00m
Iter 126, eig = -0.0043536153613, rel_error = 0.000442023857085
lanczos iteration 126 / 127, Elapsed: 0.08m, ETA: 0.00m
Iter 127, eig = -0.00435174124433, rel_error = 0.000430659101718
lanczos iteration 127 / 128, Elapsed: 0.08m, ETA: 0.00m
Iter 128, eig = -0.00434992026123, rel_error = 0.000418624477134
lanczos iteration 128 / 129, Elapsed: 0.08m, ETA: 0.00m
Iter 129, eig = -0.00434813990041, rel_error = 0.00040945343605
lanczos iteration 129 / 130, Elapsed: 0.08m, ETA: 0.00m
Iter 130, eig = -0.00434638885485, rel_error = 0.000402873655102
lanczos iteration 130 / 131, Elapsed: 0.08m, ETA: 0.00m
Iter 131, eig = -0.00434466085664, rel_error = 0.000397729135309
lanczos iteration 131 / 132, Elapsed: 0.08m, ETA: 0.00m
Iter 132, eig = -0.00434296600181, rel_error = 0.000390252842735
lanczos iteration 132 / 133, Elapsed: 0.08m, ETA: 0.00m
Iter 133, eig = -0.00434131606417, rel_error = 0.00038005471582
lanczos iteration 133 / 134, Elapsed: 0.08m, ETA: 0.00m
Iter 134, eig = -0.00433969980835, rel_error = 0.000372434935781
lanczos iteration 134 / 135, Elapsed: 0.08m, ETA: 0.00m
Iter 135, eig = -0.00433813100563, rel_error = 0.000361631015048
lanczos iteration 135 / 136, Elapsed: 0.08m, ETA: 0.00m
Iter 136, eig = -0.00433660968906, rel_error = 0.000350807815495
lanczos iteration 136 / 137, Elapsed: 0.08m, ETA: 0.00m
Iter 137, eig = -0.00433513594841, rel_error = 0.000339952578793
lanczos iteration 137 / 138, Elapsed: 0.09m, ETA: 0.00m
Iter 138, eig = -0.00433371405647, rel_error = 0.00032810008439
lanczos iteration 138 / 139, Elapsed: 0.09m, ETA: 0.00m
Iter 139, eig = -0.00433234219557, rel_error = 0.000316655711274
lanczos iteration 139 / 140, Elapsed: 0.09m, ETA: 0.00m
Iter 140, eig = -0.00433101275313, rel_error = 0.000306958790326
lanczos iteration 140 / 141, Elapsed: 0.09m, ETA: 0.00m
Iter 141, eig = -0.00432972665009, rel_error = 0.000297040238816
lanczos iteration 141 / 142, Elapsed: 0.09m, ETA: 0.00m
Iter 142, eig = -0.00432849142594, rel_error = 0.000285370591355
lanczos iteration 142 / 143, Elapsed: 0.09m, ETA: 0.00m
Iter 143, eig = -0.00432731277321, rel_error = 0.000272375210705
lanczos iteration 143 / 144, Elapsed: 0.09m, ETA: 0.00m
Iter 144, eig = -0.0043261944125, rel_error = 0.000258509119367
lanczos iteration 144 / 145, Elapsed: 0.09m, ETA: 0.00m
Iter 145, eig = -0.00432513278431, rel_error = 0.000245455628742
lanczos iteration 145 / 146, Elapsed: 0.09m, ETA: 0.00m
Iter 146, eig = -0.00432412399484, rel_error = 0.000233293373162
lanczos iteration 146 / 147, Elapsed: 0.09m, ETA: 0.00m
Iter 147, eig = -0.0043231643125, rel_error = 0.000221986089351
lanczos iteration 147 / 148, Elapsed: 0.09m, ETA: 0.00m
Iter 148, eig = -0.00432225246095, rel_error = 0.000210966749972
lanczos iteration 148 / 149, Elapsed: 0.09m, ETA: 0.00m
Iter 149, eig = -0.00432138810784, rel_error = 0.00020001746826
lanczos iteration 149 / 150, Elapsed: 0.09m, ETA: 0.00m
Iter 150, eig = -0.00432057099164, rel_error = 0.000189122270587
lanczos iteration 150 / 151, Elapsed: 0.09m, ETA: 0.00m
Iter 151, eig = -0.00431979673096, rel_error = 0.000179235443742
lanczos iteration 151 / 152, Elapsed: 0.09m, ETA: 0.00m
Iter 152, eig = -0.00431906069629, rel_error = 0.000170415449478
lanczos iteration 152 / 153, Elapsed: 0.09m, ETA: 0.00m
Iter 153, eig = -0.00431835813085, rel_error = 0.000162692720536
lanczos iteration 153 / 154, Elapsed: 0.09m, ETA: 0.00m
Iter 154, eig = -0.00431768415347, rel_error = 0.000156096962427
lanczos iteration 154 / 155, Elapsed: 0.09m, ETA: 0.00m
Iter 155, eig = -0.00431703793709, rel_error = 0.000149689763482
lanczos iteration 155 / 156, Elapsed: 0.10m, ETA: 0.00m
Iter 156, eig = -0.00431642293869, rel_error = 0.000142478716501
lanczos iteration 156 / 157, Elapsed: 0.10m, ETA: 0.00m
Iter 157, eig = -0.00431583919063, rel_error = 0.000135257136658
lanczos iteration 157 / 158, Elapsed: 0.10m, ETA: 0.00m
Iter 158, eig = -0.00431528548149, rel_error = 0.000128313445631
lanczos iteration 158 / 159, Elapsed: 0.10m, ETA: 0.00m
Iter 159, eig = -0.00431476071703, rel_error = 0.000121620755696
lanczos iteration 159 / 160, Elapsed: 0.10m, ETA: 0.00m
Iter 160, eig = -0.00431425923249, rel_error = 0.000116238852042
lanczos iteration 160 / 161, Elapsed: 0.10m, ETA: 0.00m
Iter 161, eig = -0.00431378179208, rel_error = 0.00011067792161
lanczos iteration 161 / 162, Elapsed: 0.10m, ETA: 0.00m
Iter 162, eig = -0.00431332770064, rel_error = 0.000105276359614
lanczos iteration 162 / 163, Elapsed: 0.10m, ETA: 0.00m
Iter 163, eig = -0.00431289742113, rel_error = 9.97657654062e-05
Computed nu(A): 0.00431289742113
Using Krylov method to make basis matrices
Basis matrix shape: (1, 1)
Simulating from 1 initial vector(s)
lanczos iteration 0 / 4, Elapsed: 0.00m, ETA: 0.00m
lanczos iteration 1 / 4, Elapsed: 0.00m, ETA: 0.00m
lanczos iteration 2 / 4, Elapsed: 0.00m, ETA: 0.00m
lanczos iteration 3 / 4, Elapsed: 0.00m, ETA: 0.00m
4 iterations had a posteriori error 0.862605208046
lanczos iteration 4 / 5, Elapsed: 0.00m, ETA: 0.00m
5 iterations had a posteriori error 1.32903884992
lanczos iteration 5 / 6, Elapsed: 0.00m, ETA: 0.00m
6 iterations had a posteriori error 1.3816068671
lanczos iteration 6 / 7, Elapsed: 0.00m, ETA: 0.00m
7 iterations had a posteriori error 1.51702765276
lanczos iteration 7 / 8, Elapsed: 0.00m, ETA: 0.00m
8 iterations had a posteriori error 1.75326428161
lanczos iteration 8 / 9, Elapsed: 0.00m, ETA: 0.00m
9 iterations had a posteriori error 1.65790968935
lanczos iteration 9 / 10, Elapsed: 0.01m, ETA: 0.00m
10 iterations had a posteriori error 1.83164659796
lanczos iteration 10 / 11, Elapsed: 0.01m, ETA: 0.00m
11 iterations had a posteriori error 1.81284421412
lanczos iteration 11 / 13, Elapsed: 0.01m, ETA: 0.00m
lanczos iteration 12 / 13, Elapsed: 0.01m, ETA: 0.00m
13 iterations had a posteriori error 1.86622079503
lanczos iteration 13 / 15, Elapsed: 0.01m, ETA: 0.00m
lanczos iteration 14 / 15, Elapsed: 0.01m, ETA: 0.00m
15 iterations had a posteriori error 1.82303223846
lanczos iteration 15 / 17, Elapsed: 0.01m, ETA: 0.00m
lanczos iteration 16 / 17, Elapsed: 0.01m, ETA: 0.00m
17 iterations had a posteriori error 1.78207577034
lanczos iteration 17 / 19, Elapsed: 0.01m, ETA: 0.00m
lanczos iteration 18 / 19, Elapsed: 0.01m, ETA: 0.00m
19 iterations had a posteriori error 2.03588688804
lanczos iteration 19 / 21, Elapsed: 0.01m, ETA: 0.00m
lanczos iteration 20 / 21, Elapsed: 0.01m, ETA: 0.00m
21 iterations had a posteriori error 2.36022243993
lanczos iteration 21 / 24, Elapsed: 0.01m, ETA: 0.00m
lanczos iteration 22 / 24, Elapsed: 0.01m, ETA: 0.00m
lanczos iteration 23 / 24, Elapsed: 0.01m, ETA: 0.00m
24 iterations had a posteriori error 2.21901046562
lanczos iteration 24 / 27, Elapsed: 0.01m, ETA: 0.00m
lanczos iteration 25 / 27, Elapsed: 0.01m, ETA: 0.00m
lanczos iteration 26 / 27, Elapsed: 0.02m, ETA: 0.00m
27 iterations had a posteriori error 2.10457973279
lanczos iteration 27 / 30, Elapsed: 0.02m, ETA: 0.00m
lanczos iteration 28 / 30, Elapsed: 0.02m, ETA: 0.00m
lanczos iteration 29 / 30, Elapsed: 0.02m, ETA: 0.00m
30 iterations had a posteriori error 2.0014175566
lanczos iteration 30 / 33, Elapsed: 0.02m, ETA: 0.00m
lanczos iteration 31 / 33, Elapsed: 0.02m, ETA: 0.00m
lanczos iteration 32 / 33, Elapsed: 0.02m, ETA: 0.00m
33 iterations had a posteriori error 1.87762068304
lanczos iteration 33 / 37, Elapsed: 0.02m, ETA: 0.00m
lanczos iteration 34 / 37, Elapsed: 0.02m, ETA: 0.00m
lanczos iteration 35 / 37, Elapsed: 0.02m, ETA: 0.00m
lanczos iteration 36 / 37, Elapsed: 0.02m, ETA: 0.00m
37 iterations had a posteriori error 1.94474025095
lanczos iteration 37 / 41, Elapsed: 0.02m, ETA: 0.00m
lanczos iteration 38 / 41, Elapsed: 0.02m, ETA: 0.00m
lanczos iteration 39 / 41, Elapsed: 0.02m, ETA: 0.00m
lanczos iteration 40 / 41, Elapsed: 0.02m, ETA: 0.00m
41 iterations had a posteriori error 1.80293984612
lanczos iteration 41 / 46, Elapsed: 0.02m, ETA: 0.00m
lanczos iteration 42 / 46, Elapsed: 0.02m, ETA: 0.00m
lanczos iteration 43 / 46, Elapsed: 0.03m, ETA: 0.00m
lanczos iteration 44 / 46, Elapsed: 0.03m, ETA: 0.00m
lanczos iteration 45 / 46, Elapsed: 0.03m, ETA: 0.00m
46 iterations had a posteriori error 1.64904438037
lanczos iteration 46 / 51, Elapsed: 0.03m, ETA: 0.00m
lanczos iteration 47 / 51, Elapsed: 0.03m, ETA: 0.00m
lanczos iteration 48 / 51, Elapsed: 0.03m, ETA: 0.00m
lanczos iteration 49 / 51, Elapsed: 0.03m, ETA: 0.00m
lanczos iteration 50 / 51, Elapsed: 0.03m, ETA: 0.00m
51 iterations had a posteriori error 1.52786613691
lanczos iteration 51 / 57, Elapsed: 0.03m, ETA: 0.00m
lanczos iteration 52 / 57, Elapsed: 0.03m, ETA: 0.00m
lanczos iteration 53 / 57, Elapsed: 0.03m, ETA: 0.00m
lanczos iteration 54 / 57, Elapsed: 0.03m, ETA: 0.00m
lanczos iteration 55 / 57, Elapsed: 0.03m, ETA: 0.00m
lanczos iteration 56 / 57, Elapsed: 0.03m, ETA: 0.00m
57 iterations had a posteriori error 1.51092531754
lanczos iteration 57 / 63, Elapsed: 0.04m, ETA: 0.00m
lanczos iteration 58 / 63, Elapsed: 0.04m, ETA: 0.00m
lanczos iteration 59 / 63, Elapsed: 0.04m, ETA: 0.00m
lanczos iteration 60 / 63, Elapsed: 0.04m, ETA: 0.00m
lanczos iteration 61 / 63, Elapsed: 0.04m, ETA: 0.00m
lanczos iteration 62 / 63, Elapsed: 0.04m, ETA: 0.00m
63 iterations had a posteriori error 1.39229758447
lanczos iteration 63 / 70, Elapsed: 0.04m, ETA: 0.00m
lanczos iteration 64 / 70, Elapsed: 0.04m, ETA: 0.00m
lanczos iteration 65 / 70, Elapsed: 0.04m, ETA: 0.00m
lanczos iteration 66 / 70, Elapsed: 0.04m, ETA: 0.00m
lanczos iteration 67 / 70, Elapsed: 0.04m, ETA: 0.00m
lanczos iteration 68 / 70, Elapsed: 0.04m, ETA: 0.00m
lanczos iteration 69 / 70, Elapsed: 0.04m, ETA: 0.00m
70 iterations had a posteriori error 1.2871423097
lanczos iteration 70 / 77, Elapsed: 0.04m, ETA: 0.00m
lanczos iteration 71 / 77, Elapsed: 0.04m, ETA: 0.00m
lanczos iteration 72 / 77, Elapsed: 0.04m, ETA: 0.00m
lanczos iteration 73 / 77, Elapsed: 0.04m, ETA: 0.00m
lanczos iteration 74 / 77, Elapsed: 0.05m, ETA: 0.00m
lanczos iteration 75 / 77, Elapsed: 0.05m, ETA: 0.00m
lanczos iteration 76 / 77, Elapsed: 0.05m, ETA: 0.00m
77 iterations had a posteriori error 1.24558782977
lanczos iteration 77 / 85, Elapsed: 0.05m, ETA: 0.00m
lanczos iteration 78 / 85, Elapsed: 0.05m, ETA: 0.00m
lanczos iteration 79 / 85, Elapsed: 0.05m, ETA: 0.00m
lanczos iteration 80 / 85, Elapsed: 0.05m, ETA: 0.00m
lanczos iteration 81 / 85, Elapsed: 0.05m, ETA: 0.00m
lanczos iteration 82 / 85, Elapsed: 0.05m, ETA: 0.00m
lanczos iteration 83 / 85, Elapsed: 0.05m, ETA: 0.00m
lanczos iteration 84 / 85, Elapsed: 0.05m, ETA: 0.00m
85 iterations had a posteriori error 1.15827660578
lanczos iteration 85 / 94, Elapsed: 0.05m, ETA: 0.00m
lanczos iteration 86 / 94, Elapsed: 0.05m, ETA: 0.00m
lanczos iteration 87 / 94, Elapsed: 0.05m, ETA: 0.00m
lanczos iteration 88 / 94, Elapsed: 0.05m, ETA: 0.00m
lanczos iteration 89 / 94, Elapsed: 0.05m, ETA: 0.00m
lanczos iteration 90 / 94, Elapsed: 0.05m, ETA: 0.00m
lanczos iteration 91 / 94, Elapsed: 0.06m, ETA: 0.00m
lanczos iteration 92 / 94, Elapsed: 0.06m, ETA: 0.00m
lanczos iteration 93 / 94, Elapsed: 0.06m, ETA: 0.00m
94 iterations had a posteriori error 1.11660800714
lanczos iteration 94 / 104, Elapsed: 0.06m, ETA: 0.01m
lanczos iteration 95 / 104, Elapsed: 0.06m, ETA: 0.00m
lanczos iteration 96 / 104, Elapsed: 0.06m, ETA: 0.00m
lanczos iteration 97 / 104, Elapsed: 0.06m, ETA: 0.00m
lanczos iteration 98 / 104, Elapsed: 0.06m, ETA: 0.00m
lanczos iteration 99 / 104, Elapsed: 0.06m, ETA: 0.00m
lanczos iteration 100 / 104, Elapsed: 0.06m, ETA: 0.00m
lanczos iteration 101 / 104, Elapsed: 0.06m, ETA: 0.00m
lanczos iteration 102 / 104, Elapsed: 0.06m, ETA: 0.00m
lanczos iteration 103 / 104, Elapsed: 0.06m, ETA: 0.00m
104 iterations had a posteriori error 1.06133123128
lanczos iteration 104 / 115, Elapsed: 0.06m, ETA: 0.01m
lanczos iteration 105 / 115, Elapsed: 0.06m, ETA: 0.01m
lanczos iteration 106 / 115, Elapsed: 0.07m, ETA: 0.00m
lanczos iteration 107 / 115, Elapsed: 0.07m, ETA: 0.00m
lanczos iteration 108 / 115, Elapsed: 0.07m, ETA: 0.00m
lanczos iteration 109 / 115, Elapsed: 0.07m, ETA: 0.00m
lanczos iteration 110 / 115, Elapsed: 0.07m, ETA: 0.00m
lanczos iteration 111 / 115, Elapsed: 0.07m, ETA: 0.00m
lanczos iteration 112 / 115, Elapsed: 0.07m, ETA: 0.00m
lanczos iteration 113 / 115, Elapsed: 0.07m, ETA: 0.00m
lanczos iteration 114 / 115, Elapsed: 0.07m, ETA: 0.00m
115 iterations had a posteriori error 0.974392654569
lanczos iteration 115 / 127, Elapsed: 0.07m, ETA: 0.01m
lanczos iteration 116 / 127, Elapsed: 0.07m, ETA: 0.01m
lanczos iteration 117 / 127, Elapsed: 0.07m, ETA: 0.01m
lanczos iteration 118 / 127, Elapsed: 0.07m, ETA: 0.00m
lanczos iteration 119 / 127, Elapsed: 0.07m, ETA: 0.00m
lanczos iteration 120 / 127, Elapsed: 0.07m, ETA: 0.00m
lanczos iteration 121 / 127, Elapsed: 0.07m, ETA: 0.00m
lanczos iteration 122 / 127, Elapsed: 0.08m, ETA: 0.00m
lanczos iteration 123 / 127, Elapsed: 0.08m, ETA: 0.00m
lanczos iteration 124 / 127, Elapsed: 0.08m, ETA: 0.00m
lanczos iteration 125 / 127, Elapsed: 0.08m, ETA: 0.00m
lanczos iteration 126 / 127, Elapsed: 0.08m, ETA: 0.00m
127 iterations had a posteriori error 0.924536635593
lanczos iteration 127 / 140, Elapsed: 0.08m, ETA: 0.01m
lanczos iteration 128 / 140, Elapsed: 0.08m, ETA: 0.01m
lanczos iteration 129 / 140, Elapsed: 0.08m, ETA: 0.01m
lanczos iteration 130 / 140, Elapsed: 0.08m, ETA: 0.01m
lanczos iteration 131 / 140, Elapsed: 0.08m, ETA: 0.00m
lanczos iteration 132 / 140, Elapsed: 0.08m, ETA: 0.00m
lanczos iteration 133 / 140, Elapsed: 0.08m, ETA: 0.00m
lanczos iteration 134 / 140, Elapsed: 0.08m, ETA: 0.00m
lanczos iteration 135 / 140, Elapsed: 0.08m, ETA: 0.00m
lanczos iteration 136 / 140, Elapsed: 0.08m, ETA: 0.00m
lanczos iteration 137 / 140, Elapsed: 0.08m, ETA: 0.00m
lanczos iteration 138 / 140, Elapsed: 0.08m, ETA: 0.00m
lanczos iteration 139 / 140, Elapsed: 0.09m, ETA: 0.00m
140 iterations had a posteriori error 0.93778875632
lanczos iteration 140 / 154, Elapsed: 0.09m, ETA: 0.01m
lanczos iteration 141 / 154, Elapsed: 0.09m, ETA: 0.01m
lanczos iteration 142 / 154, Elapsed: 0.09m, ETA: 0.01m
lanczos iteration 143 / 154, Elapsed: 0.09m, ETA: 0.01m
lanczos iteration 144 / 154, Elapsed: 0.09m, ETA: 0.01m
lanczos iteration 145 / 154, Elapsed: 0.09m, ETA: 0.00m
lanczos iteration 146 / 154, Elapsed: 0.09m, ETA: 0.00m
lanczos iteration 147 / 154, Elapsed: 0.09m, ETA: 0.00m
lanczos iteration 148 / 154, Elapsed: 0.09m, ETA: 0.00m
lanczos iteration 149 / 154, Elapsed: 0.09m, ETA: 0.00m
lanczos iteration 150 / 154, Elapsed: 0.09m, ETA: 0.00m
lanczos iteration 151 / 154, Elapsed: 0.09m, ETA: 0.00m
lanczos iteration 152 / 154, Elapsed: 0.09m, ETA: 0.00m
lanczos iteration 153 / 154, Elapsed: 0.09m, ETA: 0.00m
154 iterations had a posteriori error 0.97515541189
lanczos iteration 154 / 170, Elapsed: 0.09m, ETA: 0.01m
lanczos iteration 155 / 170, Elapsed: 0.09m, ETA: 0.01m
lanczos iteration 156 / 170, Elapsed: 0.10m, ETA: 0.01m
lanczos iteration 157 / 170, Elapsed: 0.10m, ETA: 0.01m
lanczos iteration 158 / 170, Elapsed: 0.10m, ETA: 0.01m
lanczos iteration 159 / 170, Elapsed: 0.10m, ETA: 0.01m
lanczos iteration 160 / 170, Elapsed: 0.10m, ETA: 0.01m
lanczos iteration 161 / 170, Elapsed: 0.10m, ETA: 0.00m
lanczos iteration 162 / 170, Elapsed: 0.10m, ETA: 0.00m
lanczos iteration 163 / 170, Elapsed: 0.10m, ETA: 0.00m
lanczos iteration 164 / 170, Elapsed: 0.10m, ETA: 0.00m
lanczos iteration 165 / 170, Elapsed: 0.10m, ETA: 0.00m
lanczos iteration 166 / 170, Elapsed: 0.10m, ETA: 0.00m
lanczos iteration 167 / 170, Elapsed: 0.10m, ETA: 0.00m
lanczos iteration 168 / 170, Elapsed: 0.10m, ETA: 0.00m
lanczos iteration 169 / 170, Elapsed: 0.10m, ETA: 0.00m
170 iterations had a posteriori error 1.08999604167
lanczos iteration 170 / 188, Elapsed: 0.10m, ETA: 0.01m
lanczos iteration 171 / 188, Elapsed: 0.10m, ETA: 0.01m
lanczos iteration 172 / 188, Elapsed: 0.11m, ETA: 0.01m
lanczos iteration 173 / 188, Elapsed: 0.11m, ETA: 0.01m
lanczos iteration 174 / 188, Elapsed: 0.11m, ETA: 0.01m
lanczos iteration 175 / 188, Elapsed: 0.11m, ETA: 0.01m
lanczos iteration 176 / 188, Elapsed: 0.11m, ETA: 0.01m
lanczos iteration 177 / 188, Elapsed: 0.11m, ETA: 0.01m
lanczos iteration 178 / 188, Elapsed: 0.11m, ETA: 0.01m
lanczos iteration 179 / 188, Elapsed: 0.11m, ETA: 0.00m
lanczos iteration 180 / 188, Elapsed: 0.11m, ETA: 0.00m
lanczos iteration 181 / 188, Elapsed: 0.11m, ETA: 0.00m
lanczos iteration 182 / 188, Elapsed: 0.11m, ETA: 0.00m
lanczos iteration 183 / 188, Elapsed: 0.11m, ETA: 0.00m
lanczos iteration 184 / 188, Elapsed: 0.11m, ETA: 0.00m
lanczos iteration 185 / 188, Elapsed: 0.11m, ETA: 0.00m
lanczos iteration 186 / 188, Elapsed: 0.11m, ETA: 0.00m
lanczos iteration 187 / 188, Elapsed: 0.11m, ETA: 0.00m
188 iterations had a posteriori error 0.898702568663
lanczos iteration 188 / 207, Elapsed: 0.11m, ETA: 0.01m
lanczos iteration 189 / 207, Elapsed: 0.12m, ETA: 0.01m
lanczos iteration 190 / 207, Elapsed: 0.12m, ETA: 0.01m
lanczos iteration 191 / 207, Elapsed: 0.12m, ETA: 0.01m
lanczos iteration 192 / 207, Elapsed: 0.12m, ETA: 0.01m
lanczos iteration 193 / 207, Elapsed: 0.12m, ETA: 0.01m
lanczos iteration 194 / 207, Elapsed: 0.12m, ETA: 0.01m
lanczos iteration 195 / 207, Elapsed: 0.12m, ETA: 0.01m
lanczos iteration 196 / 207, Elapsed: 0.12m, ETA: 0.01m
lanczos iteration 197 / 207, Elapsed: 0.12m, ETA: 0.01m
lanczos iteration 198 / 207, Elapsed: 0.12m, ETA: 0.00m
lanczos iteration 199 / 207, Elapsed: 0.12m, ETA: 0.00m
lanczos iteration 200 / 207, Elapsed: 0.12m, ETA: 0.00m
lanczos iteration 201 / 207, Elapsed: 0.12m, ETA: 0.00m
lanczos iteration 202 / 207, Elapsed: 0.12m, ETA: 0.00m
lanczos iteration 203 / 207, Elapsed: 0.12m, ETA: 0.00m
lanczos iteration 204 / 207, Elapsed: 0.12m, ETA: 0.00m
lanczos iteration 205 / 207, Elapsed: 0.13m, ETA: 0.00m
lanczos iteration 206 / 207, Elapsed: 0.13m, ETA: 0.00m
207 iterations had a posteriori error 0.715717495743
lanczos iteration 207 / 228, Elapsed: 0.13m, ETA: 0.01m
lanczos iteration 208 / 228, Elapsed: 0.13m, ETA: 0.01m
lanczos iteration 209 / 228, Elapsed: 0.13m, ETA: 0.01m
lanczos iteration 210 / 228, Elapsed: 0.13m, ETA: 0.01m
lanczos iteration 211 / 228, Elapsed: 0.13m, ETA: 0.01m
lanczos iteration 212 / 228, Elapsed: 0.13m, ETA: 0.01m
lanczos iteration 213 / 228, Elapsed: 0.13m, ETA: 0.01m
lanczos iteration 214 / 228, Elapsed: 0.13m, ETA: 0.01m
lanczos iteration 215 / 228, Elapsed: 0.13m, ETA: 0.01m
lanczos iteration 216 / 228, Elapsed: 0.13m, ETA: 0.01m
lanczos iteration 217 / 228, Elapsed: 0.13m, ETA: 0.01m
lanczos iteration 218 / 228, Elapsed: 0.13m, ETA: 0.01m
lanczos iteration 219 / 228, Elapsed: 0.13m, ETA: 0.00m
lanczos iteration 220 / 228, Elapsed: 0.13m, ETA: 0.00m
lanczos iteration 221 / 228, Elapsed: 0.13m, ETA: 0.00m
lanczos iteration 222 / 228, Elapsed: 0.14m, ETA: 0.00m
lanczos iteration 223 / 228, Elapsed: 0.14m, ETA: 0.00m
lanczos iteration 224 / 228, Elapsed: 0.14m, ETA: 0.00m
lanczos iteration 225 / 228, Elapsed: 0.14m, ETA: 0.00m
lanczos iteration 226 / 228, Elapsed: 0.14m, ETA: 0.00m
lanczos iteration 227 / 228, Elapsed: 0.14m, ETA: 0.00m
228 iterations had a posteriori error 0.601370851731
lanczos iteration 228 / 251, Elapsed: 0.14m, ETA: 0.01m
lanczos iteration 229 / 251, Elapsed: 0.14m, ETA: 0.01m
lanczos iteration 230 / 251, Elapsed: 0.14m, ETA: 0.01m
lanczos iteration 231 / 251, Elapsed: 0.14m, ETA: 0.01m
lanczos iteration 232 / 251, Elapsed: 0.14m, ETA: 0.01m
lanczos iteration 233 / 251, Elapsed: 0.14m, ETA: 0.01m
lanczos iteration 234 / 251, Elapsed: 0.14m, ETA: 0.01m
lanczos iteration 235 / 251, Elapsed: 0.14m, ETA: 0.01m
lanczos iteration 236 / 251, Elapsed: 0.14m, ETA: 0.01m
lanczos iteration 237 / 251, Elapsed: 0.14m, ETA: 0.01m
lanczos iteration 238 / 251, Elapsed: 0.15m, ETA: 0.01m
lanczos iteration 239 / 251, Elapsed: 0.15m, ETA: 0.01m
lanczos iteration 240 / 251, Elapsed: 0.15m, ETA: 0.01m
lanczos iteration 241 / 251, Elapsed: 0.15m, ETA: 0.01m
lanczos iteration 242 / 251, Elapsed: 0.15m, ETA: 0.00m
lanczos iteration 243 / 251, Elapsed: 0.15m, ETA: 0.00m
lanczos iteration 244 / 251, Elapsed: 0.15m, ETA: 0.00m
lanczos iteration 245 / 251, Elapsed: 0.15m, ETA: 0.00m
lanczos iteration 246 / 251, Elapsed: 0.15m, ETA: 0.00m
lanczos iteration 247 / 251, Elapsed: 0.15m, ETA: 0.00m
lanczos iteration 248 / 251, Elapsed: 0.15m, ETA: 0.00m
lanczos iteration 249 / 251, Elapsed: 0.15m, ETA: 0.00m
lanczos iteration 250 / 251, Elapsed: 0.15m, ETA: 0.00m
251 iterations had a posteriori error 0.414166444698
lanczos iteration 251 / 277, Elapsed: 0.15m, ETA: 0.02m
lanczos iteration 252 / 277, Elapsed: 0.15m, ETA: 0.01m
lanczos iteration 253 / 277, Elapsed: 0.15m, ETA: 0.01m
lanczos iteration 254 / 277, Elapsed: 0.16m, ETA: 0.01m
lanczos iteration 255 / 277, Elapsed: 0.16m, ETA: 0.01m
lanczos iteration 256 / 277, Elapsed: 0.16m, ETA: 0.01m
lanczos iteration 257 / 277, Elapsed: 0.16m, ETA: 0.01m
lanczos iteration 258 / 277, Elapsed: 0.16m, ETA: 0.01m
lanczos iteration 259 / 277, Elapsed: 0.16m, ETA: 0.01m
lanczos iteration 260 / 277, Elapsed: 0.16m, ETA: 0.01m
lanczos iteration 261 / 277, Elapsed: 0.16m, ETA: 0.01m
lanczos iteration 262 / 277, Elapsed: 0.16m, ETA: 0.01m
lanczos iteration 263 / 277, Elapsed: 0.16m, ETA: 0.01m
lanczos iteration 264 / 277, Elapsed: 0.16m, ETA: 0.01m
lanczos iteration 265 / 277, Elapsed: 0.16m, ETA: 0.01m
lanczos iteration 266 / 277, Elapsed: 0.16m, ETA: 0.01m
lanczos iteration 267 / 277, Elapsed: 0.16m, ETA: 0.01m
lanczos iteration 268 / 277, Elapsed: 0.16m, ETA: 0.00m
lanczos iteration 269 / 277, Elapsed: 0.16m, ETA: 0.00m
lanczos iteration 270 / 277, Elapsed: 0.16m, ETA: 0.00m
lanczos iteration 271 / 277, Elapsed: 0.17m, ETA: 0.00m
lanczos iteration 272 / 277, Elapsed: 0.17m, ETA: 0.00m
lanczos iteration 273 / 277, Elapsed: 0.17m, ETA: 0.00m
lanczos iteration 274 / 277, Elapsed: 0.17m, ETA: 0.00m
lanczos iteration 275 / 277, Elapsed: 0.17m, ETA: 0.00m
lanczos iteration 276 / 277, Elapsed: 0.17m, ETA: 0.00m
277 iterations had a posteriori error 0.245328085852
lanczos iteration 277 / 305, Elapsed: 0.17m, ETA: 0.02m
lanczos iteration 278 / 305, Elapsed: 0.17m, ETA: 0.02m
lanczos iteration 279 / 305, Elapsed: 0.17m, ETA: 0.02m
lanczos iteration 280 / 305, Elapsed: 0.17m, ETA: 0.01m
lanczos iteration 281 / 305, Elapsed: 0.17m, ETA: 0.01m
lanczos iteration 282 / 305, Elapsed: 0.17m, ETA: 0.01m
lanczos iteration 283 / 305, Elapsed: 0.17m, ETA: 0.01m
lanczos iteration 284 / 305, Elapsed: 0.17m, ETA: 0.01m
lanczos iteration 285 / 305, Elapsed: 0.17m, ETA: 0.01m
lanczos iteration 286 / 305, Elapsed: 0.17m, ETA: 0.01m
lanczos iteration 287 / 305, Elapsed: 0.17m, ETA: 0.01m
lanczos iteration 288 / 305, Elapsed: 0.18m, ETA: 0.01m
lanczos iteration 289 / 305, Elapsed: 0.18m, ETA: 0.01m
lanczos iteration 290 / 305, Elapsed: 0.18m, ETA: 0.01m
lanczos iteration 291 / 305, Elapsed: 0.18m, ETA: 0.01m
lanczos iteration 292 / 305, Elapsed: 0.18m, ETA: 0.01m
lanczos iteration 293 / 305, Elapsed: 0.18m, ETA: 0.01m
lanczos iteration 294 / 305, Elapsed: 0.18m, ETA: 0.01m
lanczos iteration 295 / 305, Elapsed: 0.18m, ETA: 0.01m
lanczos iteration 296 / 305, Elapsed: 0.18m, ETA: 0.00m
lanczos iteration 297 / 305, Elapsed: 0.18m, ETA: 0.00m
lanczos iteration 298 / 305, Elapsed: 0.18m, ETA: 0.00m
lanczos iteration 299 / 305, Elapsed: 0.18m, ETA: 0.00m
lanczos iteration 300 / 305, Elapsed: 0.18m, ETA: 0.00m
lanczos iteration 301 / 305, Elapsed: 0.18m, ETA: 0.00m
lanczos iteration 302 / 305, Elapsed: 0.18m, ETA: 0.00m
lanczos iteration 303 / 305, Elapsed: 0.18m, ETA: 0.00m
lanczos iteration 304 / 305, Elapsed: 0.18m, ETA: 0.00m
305 iterations had a posteriori error 0.119744047779
lanczos iteration 305 / 336, Elapsed: 0.19m, ETA: 0.02m
lanczos iteration 306 / 336, Elapsed: 0.19m, ETA: 0.02m
lanczos iteration 307 / 336, Elapsed: 0.19m, ETA: 0.02m
lanczos iteration 308 / 336, Elapsed: 0.19m, ETA: 0.02m
lanczos iteration 309 / 336, Elapsed: 0.19m, ETA: 0.02m
lanczos iteration 310 / 336, Elapsed: 0.19m, ETA: 0.02m
lanczos iteration 311 / 336, Elapsed: 0.19m, ETA: 0.01m
lanczos iteration 312 / 336, Elapsed: 0.19m, ETA: 0.01m
lanczos iteration 313 / 336, Elapsed: 0.19m, ETA: 0.01m
lanczos iteration 314 / 336, Elapsed: 0.19m, ETA: 0.01m
lanczos iteration 315 / 336, Elapsed: 0.19m, ETA: 0.01m
lanczos iteration 316 / 336, Elapsed: 0.19m, ETA: 0.01m
lanczos iteration 317 / 336, Elapsed: 0.19m, ETA: 0.01m
lanczos iteration 318 / 336, Elapsed: 0.19m, ETA: 0.01m
lanczos iteration 319 / 336, Elapsed: 0.19m, ETA: 0.01m
lanczos iteration 320 / 336, Elapsed: 0.19m, ETA: 0.01m
lanczos iteration 321 / 336, Elapsed: 0.19m, ETA: 0.01m
lanczos iteration 322 / 336, Elapsed: 0.20m, ETA: 0.01m
lanczos iteration 323 / 336, Elapsed: 0.20m, ETA: 0.01m
lanczos iteration 324 / 336, Elapsed: 0.20m, ETA: 0.01m
lanczos iteration 325 / 336, Elapsed: 0.20m, ETA: 0.01m
lanczos iteration 326 / 336, Elapsed: 0.20m, ETA: 0.01m
lanczos iteration 327 / 336, Elapsed: 0.20m, ETA: 0.00m
lanczos iteration 328 / 336, Elapsed: 0.20m, ETA: 0.00m
lanczos iteration 329 / 336, Elapsed: 0.20m, ETA: 0.00m
lanczos iteration 330 / 336, Elapsed: 0.20m, ETA: 0.00m
lanczos iteration 331 / 336, Elapsed: 0.20m, ETA: 0.00m
lanczos iteration 332 / 336, Elapsed: 0.20m, ETA: 0.00m
lanczos iteration 333 / 336, Elapsed: 0.20m, ETA: 0.00m
lanczos iteration 334 / 336, Elapsed: 0.20m, ETA: 0.00m
lanczos iteration 335 / 336, Elapsed: 0.20m, ETA: 0.00m
336 iterations had a posteriori error 0.0509310258864
lanczos iteration 336 / 370, Elapsed: 0.20m, ETA: 0.02m
lanczos iteration 337 / 370, Elapsed: 0.20m, ETA: 0.02m
lanczos iteration 338 / 370, Elapsed: 0.21m, ETA: 0.02m
lanczos iteration 339 / 370, Elapsed: 0.21m, ETA: 0.02m
lanczos iteration 340 / 370, Elapsed: 0.21m, ETA: 0.02m
lanczos iteration 341 / 370, Elapsed: 0.21m, ETA: 0.02m
lanczos iteration 342 / 370, Elapsed: 0.21m, ETA: 0.02m
lanczos iteration 343 / 370, Elapsed: 0.21m, ETA: 0.02m
lanczos iteration 344 / 370, Elapsed: 0.21m, ETA: 0.02m
lanczos iteration 345 / 370, Elapsed: 0.21m, ETA: 0.01m
lanczos iteration 346 / 370, Elapsed: 0.21m, ETA: 0.01m
lanczos iteration 347 / 370, Elapsed: 0.21m, ETA: 0.01m
lanczos iteration 348 / 370, Elapsed: 0.21m, ETA: 0.01m
lanczos iteration 349 / 370, Elapsed: 0.21m, ETA: 0.01m
lanczos iteration 350 / 370, Elapsed: 0.21m, ETA: 0.01m
lanczos iteration 351 / 370, Elapsed: 0.21m, ETA: 0.01m
lanczos iteration 352 / 370, Elapsed: 0.21m, ETA: 0.01m
lanczos iteration 353 / 370, Elapsed: 0.21m, ETA: 0.01m
lanczos iteration 354 / 370, Elapsed: 0.22m, ETA: 0.01m
lanczos iteration 355 / 370, Elapsed: 0.22m, ETA: 0.01m
lanczos iteration 356 / 370, Elapsed: 0.22m, ETA: 0.01m
lanczos iteration 357 / 370, Elapsed: 0.22m, ETA: 0.01m
lanczos iteration 358 / 370, Elapsed: 0.22m, ETA: 0.01m
lanczos iteration 359 / 370, Elapsed: 0.22m, ETA: 0.01m
lanczos iteration 360 / 370, Elapsed: 0.22m, ETA: 0.01m
lanczos iteration 361 / 370, Elapsed: 0.22m, ETA: 0.00m
lanczos iteration 362 / 370, Elapsed: 0.22m, ETA: 0.00m
lanczos iteration 363 / 370, Elapsed: 0.22m, ETA: 0.00m
lanczos iteration 364 / 370, Elapsed: 0.22m, ETA: 0.00m
lanczos iteration 365 / 370, Elapsed: 0.22m, ETA: 0.00m
lanczos iteration 366 / 370, Elapsed: 0.22m, ETA: 0.00m
lanczos iteration 367 / 370, Elapsed: 0.22m, ETA: 0.00m
lanczos iteration 368 / 370, Elapsed: 0.22m, ETA: 0.00m
lanczos iteration 369 / 370, Elapsed: 0.22m, ETA: 0.00m
370 iterations had a posteriori error 0.0171111345906
lanczos iteration 370 / 408, Elapsed: 0.22m, ETA: 0.02m
lanczos iteration 371 / 408, Elapsed: 0.23m, ETA: 0.02m
lanczos iteration 372 / 408, Elapsed: 0.23m, ETA: 0.02m
lanczos iteration 373 / 408, Elapsed: 0.23m, ETA: 0.02m
lanczos iteration 374 / 408, Elapsed: 0.23m, ETA: 0.02m
lanczos iteration 375 / 408, Elapsed: 0.23m, ETA: 0.02m
lanczos iteration 376 / 408, Elapsed: 0.23m, ETA: 0.02m
lanczos iteration 377 / 408, Elapsed: 0.23m, ETA: 0.02m
lanczos iteration 378 / 408, Elapsed: 0.23m, ETA: 0.02m
lanczos iteration 379 / 408, Elapsed: 0.23m, ETA: 0.02m
lanczos iteration 380 / 408, Elapsed: 0.23m, ETA: 0.02m
lanczos iteration 381 / 408, Elapsed: 0.23m, ETA: 0.02m
lanczos iteration 382 / 408, Elapsed: 0.23m, ETA: 0.02m
lanczos iteration 383 / 408, Elapsed: 0.23m, ETA: 0.01m
lanczos iteration 384 / 408, Elapsed: 0.23m, ETA: 0.01m
lanczos iteration 385 / 408, Elapsed: 0.23m, ETA: 0.01m
lanczos iteration 386 / 408, Elapsed: 0.24m, ETA: 0.01m
lanczos iteration 387 / 408, Elapsed: 0.24m, ETA: 0.01m
lanczos iteration 388 / 408, Elapsed: 0.24m, ETA: 0.01m
lanczos iteration 389 / 408, Elapsed: 0.24m, ETA: 0.01m
lanczos iteration 390 / 408, Elapsed: 0.24m, ETA: 0.01m
lanczos iteration 391 / 408, Elapsed: 0.24m, ETA: 0.01m
lanczos iteration 392 / 408, Elapsed: 0.24m, ETA: 0.01m
lanczos iteration 393 / 408, Elapsed: 0.24m, ETA: 0.01m
lanczos iteration 394 / 408, Elapsed: 0.24m, ETA: 0.01m
lanczos iteration 395 / 408, Elapsed: 0.24m, ETA: 0.01m
lanczos iteration 396 / 408, Elapsed: 0.24m, ETA: 0.01m
lanczos iteration 397 / 408, Elapsed: 0.24m, ETA: 0.01m
lanczos iteration 398 / 408, Elapsed: 0.24m, ETA: 0.01m
lanczos iteration 399 / 408, Elapsed: 0.24m, ETA: 0.00m
lanczos iteration 400 / 408, Elapsed: 0.24m, ETA: 0.00m
lanczos iteration 401 / 408, Elapsed: 0.25m, ETA: 0.00m
lanczos iteration 402 / 408, Elapsed: 0.25m, ETA: 0.00m
lanczos iteration 403 / 408, Elapsed: 0.25m, ETA: 0.00m
lanczos iteration 404 / 408, Elapsed: 0.25m, ETA: 0.00m
lanczos iteration 405 / 408, Elapsed: 0.25m, ETA: 0.00m
lanczos iteration 406 / 408, Elapsed: 0.25m, ETA: 0.00m
lanczos iteration 407 / 408, Elapsed: 0.25m, ETA: 0.00m
408 iterations had a posteriori error 0.00461174134271
lanczos iteration 408 / 449, Elapsed: 0.25m, ETA: 0.02m
lanczos iteration 409 / 449, Elapsed: 0.25m, ETA: 0.02m
lanczos iteration 410 / 449, Elapsed: 0.25m, ETA: 0.02m
lanczos iteration 411 / 449, Elapsed: 0.25m, ETA: 0.02m
lanczos iteration 412 / 449, Elapsed: 0.25m, ETA: 0.02m
lanczos iteration 413 / 449, Elapsed: 0.25m, ETA: 0.02m
lanczos iteration 414 / 449, Elapsed: 0.25m, ETA: 0.02m
lanczos iteration 415 / 449, Elapsed: 0.25m, ETA: 0.02m
lanczos iteration 416 / 449, Elapsed: 0.26m, ETA: 0.02m
lanczos iteration 417 / 449, Elapsed: 0.26m, ETA: 0.02m
lanczos iteration 418 / 449, Elapsed: 0.26m, ETA: 0.02m
lanczos iteration 419 / 449, Elapsed: 0.26m, ETA: 0.02m
lanczos iteration 420 / 449, Elapsed: 0.26m, ETA: 0.02m
lanczos iteration 421 / 449, Elapsed: 0.26m, ETA: 0.02m
lanczos iteration 422 / 449, Elapsed: 0.26m, ETA: 0.02m
lanczos iteration 423 / 449, Elapsed: 0.26m, ETA: 0.02m
lanczos iteration 424 / 449, Elapsed: 0.26m, ETA: 0.01m
lanczos iteration 425 / 449, Elapsed: 0.26m, ETA: 0.01m
lanczos iteration 426 / 449, Elapsed: 0.26m, ETA: 0.01m
lanczos iteration 427 / 449, Elapsed: 0.26m, ETA: 0.01m
lanczos iteration 428 / 449, Elapsed: 0.26m, ETA: 0.01m
lanczos iteration 429 / 449, Elapsed: 0.26m, ETA: 0.01m
lanczos iteration 430 / 449, Elapsed: 0.26m, ETA: 0.01m
lanczos iteration 431 / 449, Elapsed: 0.26m, ETA: 0.01m
lanczos iteration 432 / 449, Elapsed: 0.27m, ETA: 0.01m
lanczos iteration 433 / 449, Elapsed: 0.27m, ETA: 0.01m
lanczos iteration 434 / 449, Elapsed: 0.27m, ETA: 0.01m
lanczos iteration 435 / 449, Elapsed: 0.27m, ETA: 0.01m
lanczos iteration 436 / 449, Elapsed: 0.27m, ETA: 0.01m
lanczos iteration 437 / 449, Elapsed: 0.27m, ETA: 0.01m
lanczos iteration 438 / 449, Elapsed: 0.27m, ETA: 0.01m
lanczos iteration 439 / 449, Elapsed: 0.27m, ETA: 0.01m
lanczos iteration 440 / 449, Elapsed: 0.27m, ETA: 0.00m
lanczos iteration 441 / 449, Elapsed: 0.27m, ETA: 0.00m
lanczos iteration 442 / 449, Elapsed: 0.27m, ETA: 0.00m
lanczos iteration 443 / 449, Elapsed: 0.27m, ETA: 0.00m
lanczos iteration 444 / 449, Elapsed: 0.27m, ETA: 0.00m
lanczos iteration 445 / 449, Elapsed: 0.27m, ETA: 0.00m
lanczos iteration 446 / 449, Elapsed: 0.27m, ETA: 0.00m
lanczos iteration 447 / 449, Elapsed: 0.27m, ETA: 0.00m
lanczos iteration 448 / 449, Elapsed: 0.28m, ETA: 0.00m
449 iterations had a posteriori error 0.00181243682339
lanczos iteration 449 / 494, Elapsed: 0.28m, ETA: 0.03m
lanczos iteration 450 / 494, Elapsed: 0.28m, ETA: 0.03m
lanczos iteration 451 / 494, Elapsed: 0.28m, ETA: 0.03m
lanczos iteration 452 / 494, Elapsed: 0.28m, ETA: 0.03m
lanczos iteration 453 / 494, Elapsed: 0.28m, ETA: 0.02m
lanczos iteration 454 / 494, Elapsed: 0.28m, ETA: 0.02m
lanczos iteration 455 / 494, Elapsed: 0.28m, ETA: 0.02m
lanczos iteration 456 / 494, Elapsed: 0.28m, ETA: 0.02m
lanczos iteration 457 / 494, Elapsed: 0.28m, ETA: 0.02m
lanczos iteration 458 / 494, Elapsed: 0.28m, ETA: 0.02m
lanczos iteration 459 / 494, Elapsed: 0.28m, ETA: 0.02m
lanczos iteration 460 / 494, Elapsed: 0.28m, ETA: 0.02m
lanczos iteration 461 / 494, Elapsed: 0.28m, ETA: 0.02m
lanczos iteration 462 / 494, Elapsed: 0.29m, ETA: 0.02m
lanczos iteration 463 / 494, Elapsed: 0.29m, ETA: 0.02m
lanczos iteration 464 / 494, Elapsed: 0.29m, ETA: 0.02m
lanczos iteration 465 / 494, Elapsed: 0.29m, ETA: 0.02m
lanczos iteration 466 / 494, Elapsed: 0.29m, ETA: 0.02m
lanczos iteration 467 / 494, Elapsed: 0.29m, ETA: 0.02m
lanczos iteration 468 / 494, Elapsed: 0.29m, ETA: 0.02m
lanczos iteration 469 / 494, Elapsed: 0.29m, ETA: 0.01m
lanczos iteration 470 / 494, Elapsed: 0.29m, ETA: 0.01m
lanczos iteration 471 / 494, Elapsed: 0.29m, ETA: 0.01m
lanczos iteration 472 / 494, Elapsed: 0.29m, ETA: 0.01m
lanczos iteration 473 / 494, Elapsed: 0.29m, ETA: 0.01m
lanczos iteration 474 / 494, Elapsed: 0.29m, ETA: 0.01m
lanczos iteration 475 / 494, Elapsed: 0.29m, ETA: 0.01m
lanczos iteration 476 / 494, Elapsed: 0.29m, ETA: 0.01m
lanczos iteration 477 / 494, Elapsed: 0.29m, ETA: 0.01m
lanczos iteration 478 / 494, Elapsed: 0.29m, ETA: 0.01m
lanczos iteration 479 / 494, Elapsed: 0.30m, ETA: 0.01m
lanczos iteration 480 / 494, Elapsed: 0.30m, ETA: 0.01m
lanczos iteration 481 / 494, Elapsed: 0.30m, ETA: 0.01m
lanczos iteration 482 / 494, Elapsed: 0.30m, ETA: 0.01m
lanczos iteration 483 / 494, Elapsed: 0.30m, ETA: 0.01m
lanczos iteration 484 / 494, Elapsed: 0.30m, ETA: 0.01m
lanczos iteration 485 / 494, Elapsed: 0.30m, ETA: 0.00m
lanczos iteration 486 / 494, Elapsed: 0.30m, ETA: 0.00m
lanczos iteration 487 / 494, Elapsed: 0.30m, ETA: 0.00m
lanczos iteration 488 / 494, Elapsed: 0.30m, ETA: 0.00m
lanczos iteration 489 / 494, Elapsed: 0.30m, ETA: 0.00m
lanczos iteration 490 / 494, Elapsed: 0.30m, ETA: 0.00m
lanczos iteration 491 / 494, Elapsed: 0.30m, ETA: 0.00m
lanczos iteration 492 / 494, Elapsed: 0.30m, ETA: 0.00m
lanczos iteration 493 / 494, Elapsed: 0.30m, ETA: 0.00m
494 iterations had a posteriori error 0.00077886541191
lanczos iteration 494 / 544, Elapsed: 0.30m, ETA: 0.03m
lanczos iteration 495 / 544, Elapsed: 0.31m, ETA: 0.03m
lanczos iteration 496 / 544, Elapsed: 0.31m, ETA: 0.03m
lanczos iteration 497 / 544, Elapsed: 0.31m, ETA: 0.03m
lanczos iteration 498 / 544, Elapsed: 0.31m, ETA: 0.03m
lanczos iteration 499 / 544, Elapsed: 0.31m, ETA: 0.03m
lanczos iteration 500 / 544, Elapsed: 0.31m, ETA: 0.03m
lanczos iteration 501 / 544, Elapsed: 0.31m, ETA: 0.03m
lanczos iteration 502 / 544, Elapsed: 0.31m, ETA: 0.03m
lanczos iteration 503 / 544, Elapsed: 0.31m, ETA: 0.02m
lanczos iteration 504 / 544, Elapsed: 0.31m, ETA: 0.02m
lanczos iteration 505 / 544, Elapsed: 0.31m, ETA: 0.02m
lanczos iteration 506 / 544, Elapsed: 0.31m, ETA: 0.02m
lanczos iteration 507 / 544, Elapsed: 0.31m, ETA: 0.02m
lanczos iteration 508 / 544, Elapsed: 0.31m, ETA: 0.02m
lanczos iteration 509 / 544, Elapsed: 0.31m, ETA: 0.02m
lanczos iteration 510 / 544, Elapsed: 0.32m, ETA: 0.02m
lanczos iteration 511 / 544, Elapsed: 0.32m, ETA: 0.02m
lanczos iteration 512 / 544, Elapsed: 0.32m, ETA: 0.02m
lanczos iteration 513 / 544, Elapsed: 0.32m, ETA: 0.02m
lanczos iteration 514 / 544, Elapsed: 0.32m, ETA: 0.02m
lanczos iteration 515 / 544, Elapsed: 0.32m, ETA: 0.02m
lanczos iteration 516 / 544, Elapsed: 0.32m, ETA: 0.02m
lanczos iteration 517 / 544, Elapsed: 0.32m, ETA: 0.02m
lanczos iteration 518 / 544, Elapsed: 0.32m, ETA: 0.02m
lanczos iteration 519 / 544, Elapsed: 0.32m, ETA: 0.01m
lanczos iteration 520 / 544, Elapsed: 0.32m, ETA: 0.01m
lanczos iteration 521 / 544, Elapsed: 0.32m, ETA: 0.01m
lanczos iteration 522 / 544, Elapsed: 0.32m, ETA: 0.01m
lanczos iteration 523 / 544, Elapsed: 0.32m, ETA: 0.01m
lanczos iteration 524 / 544, Elapsed: 0.32m, ETA: 0.01m
lanczos iteration 525 / 544, Elapsed: 0.32m, ETA: 0.01m
lanczos iteration 526 / 544, Elapsed: 0.33m, ETA: 0.01m
lanczos iteration 527 / 544, Elapsed: 0.33m, ETA: 0.01m
lanczos iteration 528 / 544, Elapsed: 0.33m, ETA: 0.01m
lanczos iteration 529 / 544, Elapsed: 0.33m, ETA: 0.01m
lanczos iteration 530 / 544, Elapsed: 0.33m, ETA: 0.01m
lanczos iteration 531 / 544, Elapsed: 0.33m, ETA: 0.01m
lanczos iteration 532 / 544, Elapsed: 0.33m, ETA: 0.01m
lanczos iteration 533 / 544, Elapsed: 0.33m, ETA: 0.01m
lanczos iteration 534 / 544, Elapsed: 0.33m, ETA: 0.01m
lanczos iteration 535 / 544, Elapsed: 0.33m, ETA: 0.00m
lanczos iteration 536 / 544, Elapsed: 0.33m, ETA: 0.00m
lanczos iteration 537 / 544, Elapsed: 0.33m, ETA: 0.00m
lanczos iteration 538 / 544, Elapsed: 0.33m, ETA: 0.00m
lanczos iteration 539 / 544, Elapsed: 0.33m, ETA: 0.00m
lanczos iteration 540 / 544, Elapsed: 0.33m, ETA: 0.00m
lanczos iteration 541 / 544, Elapsed: 0.34m, ETA: 0.00m
lanczos iteration 542 / 544, Elapsed: 0.34m, ETA: 0.00m
lanczos iteration 543 / 544, Elapsed: 0.34m, ETA: 0.00m
544 iterations had a posteriori error 0.000140093584131
lanczos iteration 544 / 599, Elapsed: 0.34m, ETA: 0.03m
lanczos iteration 545 / 599, Elapsed: 0.34m, ETA: 0.03m
lanczos iteration 546 / 599, Elapsed: 0.34m, ETA: 0.03m
lanczos iteration 547 / 599, Elapsed: 0.34m, ETA: 0.03m
lanczos iteration 548 / 599, Elapsed: 0.34m, ETA: 0.03m
lanczos iteration 549 / 599, Elapsed: 0.34m, ETA: 0.03m
lanczos iteration 550 / 599, Elapsed: 0.34m, ETA: 0.03m
lanczos iteration 551 / 599, Elapsed: 0.34m, ETA: 0.03m
lanczos iteration 552 / 599, Elapsed: 0.34m, ETA: 0.03m
lanczos iteration 553 / 599, Elapsed: 0.34m, ETA: 0.03m
lanczos iteration 554 / 599, Elapsed: 0.34m, ETA: 0.03m
lanczos iteration 555 / 599, Elapsed: 0.34m, ETA: 0.03m
lanczos iteration 556 / 599, Elapsed: 0.35m, ETA: 0.03m
lanczos iteration 557 / 599, Elapsed: 0.35m, ETA: 0.03m
lanczos iteration 558 / 599, Elapsed: 0.35m, ETA: 0.02m
lanczos iteration 559 / 599, Elapsed: 0.35m, ETA: 0.02m
lanczos iteration 560 / 599, Elapsed: 0.35m, ETA: 0.02m
lanczos iteration 561 / 599, Elapsed: 0.35m, ETA: 0.02m
lanczos iteration 562 / 599, Elapsed: 0.35m, ETA: 0.02m
lanczos iteration 563 / 599, Elapsed: 0.35m, ETA: 0.02m
lanczos iteration 564 / 599, Elapsed: 0.35m, ETA: 0.02m
lanczos iteration 565 / 599, Elapsed: 0.35m, ETA: 0.02m
lanczos iteration 566 / 599, Elapsed: 0.35m, ETA: 0.02m
lanczos iteration 567 / 599, Elapsed: 0.35m, ETA: 0.02m
lanczos iteration 568 / 599, Elapsed: 0.35m, ETA: 0.02m
lanczos iteration 569 / 599, Elapsed: 0.35m, ETA: 0.02m
lanczos iteration 570 / 599, Elapsed: 0.35m, ETA: 0.02m
lanczos iteration 571 / 599, Elapsed: 0.35m, ETA: 0.02m
lanczos iteration 572 / 599, Elapsed: 0.35m, ETA: 0.02m
lanczos iteration 573 / 599, Elapsed: 0.35m, ETA: 0.02m
lanczos iteration 574 / 599, Elapsed: 0.36m, ETA: 0.01m
lanczos iteration 575 / 599, Elapsed: 0.36m, ETA: 0.01m
lanczos iteration 576 / 599, Elapsed: 0.36m, ETA: 0.01m
lanczos iteration 577 / 599, Elapsed: 0.36m, ETA: 0.01m
lanczos iteration 578 / 599, Elapsed: 0.36m, ETA: 0.01m
lanczos iteration 579 / 599, Elapsed: 0.36m, ETA: 0.01m
lanczos iteration 580 / 599, Elapsed: 0.36m, ETA: 0.01m
lanczos iteration 581 / 599, Elapsed: 0.36m, ETA: 0.01m
lanczos iteration 582 / 599, Elapsed: 0.36m, ETA: 0.01m
lanczos iteration 583 / 599, Elapsed: 0.36m, ETA: 0.01m
lanczos iteration 584 / 599, Elapsed: 0.36m, ETA: 0.01m
lanczos iteration 585 / 599, Elapsed: 0.36m, ETA: 0.01m
lanczos iteration 586 / 599, Elapsed: 0.36m, ETA: 0.01m
lanczos iteration 587 / 599, Elapsed: 0.36m, ETA: 0.01m
lanczos iteration 588 / 599, Elapsed: 0.36m, ETA: 0.01m
lanczos iteration 589 / 599, Elapsed: 0.36m, ETA: 0.01m
lanczos iteration 590 / 599, Elapsed: 0.36m, ETA: 0.00m
lanczos iteration 591 / 599, Elapsed: 0.37m, ETA: 0.00m
lanczos iteration 592 / 599, Elapsed: 0.37m, ETA: 0.00m
lanczos iteration 593 / 599, Elapsed: 0.37m, ETA: 0.00m
lanczos iteration 594 / 599, Elapsed: 0.37m, ETA: 0.00m
lanczos iteration 595 / 599, Elapsed: 0.37m, ETA: 0.00m
lanczos iteration 596 / 599, Elapsed: 0.37m, ETA: 0.00m
lanczos iteration 597 / 599, Elapsed: 0.37m, ETA: 0.00m
lanczos iteration 598 / 599, Elapsed: 0.37m, ETA: 0.00m
599 iterations had a posteriori error 2.75447630294e-05
lanczos iteration 599 / 659, Elapsed: 0.37m, ETA: 0.04m
lanczos iteration 600 / 659, Elapsed: 0.37m, ETA: 0.04m
lanczos iteration 601 / 659, Elapsed: 0.37m, ETA: 0.04m
lanczos iteration 602 / 659, Elapsed: 0.37m, ETA: 0.03m
lanczos iteration 603 / 659, Elapsed: 0.37m, ETA: 0.03m
lanczos iteration 604 / 659, Elapsed: 0.37m, ETA: 0.03m
lanczos iteration 605 / 659, Elapsed: 0.37m, ETA: 0.03m
lanczos iteration 606 / 659, Elapsed: 0.38m, ETA: 0.03m
lanczos iteration 607 / 659, Elapsed: 0.38m, ETA: 0.03m
lanczos iteration 608 / 659, Elapsed: 0.38m, ETA: 0.03m
lanczos iteration 609 / 659, Elapsed: 0.38m, ETA: 0.03m
lanczos iteration 610 / 659, Elapsed: 0.38m, ETA: 0.03m
lanczos iteration 611 / 659, Elapsed: 0.38m, ETA: 0.03m
lanczos iteration 612 / 659, Elapsed: 0.38m, ETA: 0.03m
lanczos iteration 613 / 659, Elapsed: 0.38m, ETA: 0.03m
lanczos iteration 614 / 659, Elapsed: 0.38m, ETA: 0.03m
lanczos iteration 615 / 659, Elapsed: 0.38m, ETA: 0.03m
lanczos iteration 616 / 659, Elapsed: 0.38m, ETA: 0.03m
lanczos iteration 617 / 659, Elapsed: 0.38m, ETA: 0.03m
lanczos iteration 618 / 659, Elapsed: 0.38m, ETA: 0.02m
lanczos iteration 619 / 659, Elapsed: 0.38m, ETA: 0.02m
lanczos iteration 620 / 659, Elapsed: 0.38m, ETA: 0.02m
lanczos iteration 621 / 659, Elapsed: 0.38m, ETA: 0.02m
lanczos iteration 622 / 659, Elapsed: 0.39m, ETA: 0.02m
lanczos iteration 623 / 659, Elapsed: 0.39m, ETA: 0.02m
lanczos iteration 624 / 659, Elapsed: 0.39m, ETA: 0.02m
lanczos iteration 625 / 659, Elapsed: 0.39m, ETA: 0.02m
lanczos iteration 626 / 659, Elapsed: 0.39m, ETA: 0.02m
lanczos iteration 627 / 659, Elapsed: 0.39m, ETA: 0.02m
lanczos iteration 628 / 659, Elapsed: 0.39m, ETA: 0.02m
lanczos iteration 629 / 659, Elapsed: 0.39m, ETA: 0.02m
lanczos iteration 630 / 659, Elapsed: 0.39m, ETA: 0.02m
lanczos iteration 631 / 659, Elapsed: 0.39m, ETA: 0.02m
lanczos iteration 632 / 659, Elapsed: 0.39m, ETA: 0.02m
lanczos iteration 633 / 659, Elapsed: 0.39m, ETA: 0.02m
lanczos iteration 634 / 659, Elapsed: 0.39m, ETA: 0.01m
lanczos iteration 635 / 659, Elapsed: 0.39m, ETA: 0.01m
lanczos iteration 636 / 659, Elapsed: 0.39m, ETA: 0.01m
lanczos iteration 637 / 659, Elapsed: 0.39m, ETA: 0.01m
lanczos iteration 638 / 659, Elapsed: 0.39m, ETA: 0.01m
lanczos iteration 639 / 659, Elapsed: 0.40m, ETA: 0.01m
lanczos iteration 640 / 659, Elapsed: 0.40m, ETA: 0.01m
lanczos iteration 641 / 659, Elapsed: 0.40m, ETA: 0.01m
lanczos iteration 642 / 659, Elapsed: 0.40m, ETA: 0.01m
lanczos iteration 643 / 659, Elapsed: 0.40m, ETA: 0.01m
lanczos iteration 644 / 659, Elapsed: 0.40m, ETA: 0.01m
lanczos iteration 645 / 659, Elapsed: 0.40m, ETA: 0.01m
lanczos iteration 646 / 659, Elapsed: 0.40m, ETA: 0.01m
lanczos iteration 647 / 659, Elapsed: 0.40m, ETA: 0.01m
lanczos iteration 648 / 659, Elapsed: 0.40m, ETA: 0.01m
lanczos iteration 649 / 659, Elapsed: 0.40m, ETA: 0.01m
lanczos iteration 650 / 659, Elapsed: 0.40m, ETA: 0.00m
lanczos iteration 651 / 659, Elapsed: 0.40m, ETA: 0.00m
lanczos iteration 652 / 659, Elapsed: 0.40m, ETA: 0.00m
lanczos iteration 653 / 659, Elapsed: 0.40m, ETA: 0.00m
lanczos iteration 654 / 659, Elapsed: 0.40m, ETA: 0.00m
lanczos iteration 655 / 659, Elapsed: 0.41m, ETA: 0.00m
lanczos iteration 656 / 659, Elapsed: 0.41m, ETA: 0.00m
lanczos iteration 657 / 659, Elapsed: 0.41m, ETA: 0.00m
lanczos iteration 658 / 659, Elapsed: 0.41m, ETA: 0.00m
659 iterations had a posteriori error 1.78930408816e-06
lanczos iteration 659 / 725, Elapsed: 0.41m, ETA: 0.04m
lanczos iteration 660 / 725, Elapsed: 0.41m, ETA: 0.04m
lanczos iteration 661 / 725, Elapsed: 0.41m, ETA: 0.04m
lanczos iteration 662 / 725, Elapsed: 0.41m, ETA: 0.04m
lanczos iteration 663 / 725, Elapsed: 0.41m, ETA: 0.04m
lanczos iteration 664 / 725, Elapsed: 0.41m, ETA: 0.04m
lanczos iteration 665 / 725, Elapsed: 0.41m, ETA: 0.04m
lanczos iteration 666 / 725, Elapsed: 0.41m, ETA: 0.04m
lanczos iteration 667 / 725, Elapsed: 0.41m, ETA: 0.04m
lanczos iteration 668 / 725, Elapsed: 0.41m, ETA: 0.03m
lanczos iteration 669 / 725, Elapsed: 0.41m, ETA: 0.03m
lanczos iteration 670 / 725, Elapsed: 0.41m, ETA: 0.03m
lanczos iteration 671 / 725, Elapsed: 0.41m, ETA: 0.03m
lanczos iteration 672 / 725, Elapsed: 0.42m, ETA: 0.03m
lanczos iteration 673 / 725, Elapsed: 0.42m, ETA: 0.03m
lanczos iteration 674 / 725, Elapsed: 0.42m, ETA: 0.03m
lanczos iteration 675 / 725, Elapsed: 0.42m, ETA: 0.03m
lanczos iteration 676 / 725, Elapsed: 0.42m, ETA: 0.03m
lanczos iteration 677 / 725, Elapsed: 0.42m, ETA: 0.03m
lanczos iteration 678 / 725, Elapsed: 0.42m, ETA: 0.03m
lanczos iteration 679 / 725, Elapsed: 0.42m, ETA: 0.03m
lanczos iteration 680 / 725, Elapsed: 0.42m, ETA: 0.03m
lanczos iteration 681 / 725, Elapsed: 0.42m, ETA: 0.03m
lanczos iteration 682 / 725, Elapsed: 0.42m, ETA: 0.03m
lanczos iteration 683 / 725, Elapsed: 0.42m, ETA: 0.03m
lanczos iteration 684 / 725, Elapsed: 0.42m, ETA: 0.02m
lanczos iteration 685 / 725, Elapsed: 0.42m, ETA: 0.02m
lanczos iteration 686 / 725, Elapsed: 0.42m, ETA: 0.02m
lanczos iteration 687 / 725, Elapsed: 0.42m, ETA: 0.02m
lanczos iteration 688 / 725, Elapsed: 0.43m, ETA: 0.02m
lanczos iteration 689 / 725, Elapsed: 0.43m, ETA: 0.02m
lanczos iteration 690 / 725, Elapsed: 0.43m, ETA: 0.02m
lanczos iteration 691 / 725, Elapsed: 0.43m, ETA: 0.02m
lanczos iteration 692 / 725, Elapsed: 0.43m, ETA: 0.02m
lanczos iteration 693 / 725, Elapsed: 0.43m, ETA: 0.02m
lanczos iteration 694 / 725, Elapsed: 0.43m, ETA: 0.02m
lanczos iteration 695 / 725, Elapsed: 0.43m, ETA: 0.02m
lanczos iteration 696 / 725, Elapsed: 0.43m, ETA: 0.02m
lanczos iteration 697 / 725, Elapsed: 0.43m, ETA: 0.02m
lanczos iteration 698 / 725, Elapsed: 0.43m, ETA: 0.02m
lanczos iteration 699 / 725, Elapsed: 0.43m, ETA: 0.02m
lanczos iteration 700 / 725, Elapsed: 0.43m, ETA: 0.01m
lanczos iteration 701 / 725, Elapsed: 0.43m, ETA: 0.01m
lanczos iteration 702 / 725, Elapsed: 0.43m, ETA: 0.01m
lanczos iteration 703 / 725, Elapsed: 0.44m, ETA: 0.01m
lanczos iteration 704 / 725, Elapsed: 0.44m, ETA: 0.01m
lanczos iteration 705 / 725, Elapsed: 0.44m, ETA: 0.01m
lanczos iteration 706 / 725, Elapsed: 0.44m, ETA: 0.01m
lanczos iteration 707 / 725, Elapsed: 0.44m, ETA: 0.01m
lanczos iteration 708 / 725, Elapsed: 0.44m, ETA: 0.01m
lanczos iteration 709 / 725, Elapsed: 0.44m, ETA: 0.01m
lanczos iteration 710 / 725, Elapsed: 0.44m, ETA: 0.01m
lanczos iteration 711 / 725, Elapsed: 0.44m, ETA: 0.01m
lanczos iteration 712 / 725, Elapsed: 0.44m, ETA: 0.01m
lanczos iteration 713 / 725, Elapsed: 0.44m, ETA: 0.01m
lanczos iteration 714 / 725, Elapsed: 0.44m, ETA: 0.01m
lanczos iteration 715 / 725, Elapsed: 0.44m, ETA: 0.01m
lanczos iteration 716 / 725, Elapsed: 0.44m, ETA: 0.00m
lanczos iteration 717 / 725, Elapsed: 0.44m, ETA: 0.00m
lanczos iteration 718 / 725, Elapsed: 0.44m, ETA: 0.00m
lanczos iteration 719 / 725, Elapsed: 0.45m, ETA: 0.00m
lanczos iteration 720 / 725, Elapsed: 0.45m, ETA: 0.00m
lanczos iteration 721 / 725, Elapsed: 0.45m, ETA: 0.00m
lanczos iteration 722 / 725, Elapsed: 0.45m, ETA: 0.00m
lanczos iteration 723 / 725, Elapsed: 0.45m, ETA: 0.00m
lanczos iteration 724 / 725, Elapsed: 0.45m, ETA: 0.00m
725 iterations had a posteriori error 9.69206892887e-08
Krylov error 9.69206892887e-08 was below threshold (1e-06) with 725 iterations
Krylov Simulation Total Time: 34.19 secs

Solving first step guard LP...
Result: System is safe. Error modes are NOT reachable.

LP minimize calls: 4002
LP iterations: 3944
Total Time (1 calls): 44.62 sec
  Init time_elapse_obj Time (1 calls): 9.96 sec (22.3%)
    Is_symmetric Time (1 calls): 0.77 sec (7.7%)
    Compute_nu_a Time (1 calls): 9.18 sec (92.2%)
      Realloc Time (154 calls): 0.01 sec (0.1%)
      Lanczos Time (154 calls): 6.18 sec (67.3%)
        Lanczos mult Time (163 calls): 2.80 sec (45.3%)
        Lanczos dot Time (163 calls): 0.20 sec (3.2%)
        Lanczos axpy Time (325 calls): 2.40 sec (38.8%)
        Lanczos norm Time (163 calls): 0.07 sec (1.2%)
        Lanczos norm div Time (163 calls): 0.46 sec (7.5%)
        Other: 0.25 sec (4.0%)
      Other: 2.99 sec (32.5%)
    Other: 0.01 sec (0.1%)
  Step Time (2001 calls): 34.21 sec (76.7%)
    Realloc Time (48 calls): 0.01 sec (0.0%)
    Lanczos Time (48 calls): 27.02 sec (79.0%)
      Lanczos mult Time (725 calls): 13.74 sec (50.8%)
      Lanczos dot Time (725 calls): 1.66 sec (6.1%)
      Lanczos axpy Time (1449 calls): 8.82 sec (32.6%)
      Lanczos norm Time (725 calls): 0.40 sec (1.5%)
      Lanczos norm div Time (725 calls): 2.00 sec (7.4%)
      Other: 0.40 sec (1.5%)
    A_posteriori_error Time (48 calls): 3.99 sec (11.7%)
      H(t) expm Time (48 calls): 3.83 sec (96.0%)
      H(t) mult Time (48 calls): 0.06 sec (1.5%)
      Other: 0.10 sec (2.5%)
    Projected_sim Time (1 calls): 3.14 sec (9.2%)
      H-mat expm Time (1 calls): 2.55 sec (81.2%)
      Other: 0.59 sec (18.8%)
    Update result list Time (1 calls): 0.01 sec (0.0%)
    Other: 0.04 sec (0.1%)
  Lp minimize Time (4002 calls): 0.24 sec (0.5%)
  Other: 0.20 sec (0.5%)
Finished all benchmarks successfully
